<?xml version="1.0" standalone="no"?>
<!DOCTYPE svg PUBLIC "-//W3C//DTD SVG 1.1//EN" "http://www.w3.org/Graphics/SVG/1.1/DTD/svg11.dtd" >
<svg>
<metadata>
Created by FontForge 20090622 at Sun May 24 22:03:25 2015
 By deploy user
Copyright (c) 2011, Andrew Paglinawan (www.andrewpaglinawan.com), with Reserved Font Name "Quicksand".
</metadata>
<defs>
<font id="Quicksand-Bold" horiz-adv-x="613" >
  <font-face 
    font-family="Quicksand"
    font-weight="700"
    font-stretch="normal"
    units-per-em="1000"
    panose-1="2 0 8 3 0 0 0 0 0 0"
    ascent="800"
    descent="-200"
    x-height="488"
    cap-height="700"
    bbox="-24 -188 1097 950"
    underline-thickness="50"
    underline-position="-50"
    unicode-range="U+0020-U+2122"
  />
<missing-glyph horiz-adv-x="364" 
d="M33 0v666h265v-666h-265zM66 33h199v600h-199v-600z" />
    <glyph glyph-name=".notdef" horiz-adv-x="364" 
d="M33 0v666h265v-666h-265zM66 33h199v600h-199v-600z" />
    <glyph glyph-name=".null" horiz-adv-x="0" 
 />
    <glyph glyph-name="nonmarkingreturn" horiz-adv-x="333" 
 />
    <glyph glyph-name="space" unicode=" " horiz-adv-x="300" 
 />
    <glyph glyph-name="exclam" unicode="!" horiz-adv-x="252" 
d="M148 186q-23 0 -39 16t-16 39v404q0 23 16.5 39t38.5 16t38 -16t16 -39v-404q0 -23 -15.5 -39t-38.5 -16zM202 55q0 -23 -15.5 -39t-38.5 -16t-39 16t-16 39v20q0 23 16.5 39t38.5 16t38 -16t16 -39v-20z" />
    <glyph glyph-name="quotedbl" unicode="&#x22;" horiz-adv-x="410" 
d="M289 433l17 214q2 24 17.5 40t39.5 16h40q14 0 23 -9t9 -19.5t-4 -26.5l-73 -222q-11 -31 -36 -31q-15 0 -24.5 10.5t-8.5 27.5zM69 433l18 214q2 24 17.5 40t39.5 16h39q15 0 24 -9t9 -19.5t-4 -26.5l-73 -222q-11 -31 -36 -31q-15 0 -25 10.5t-9 27.5z" />
    <glyph glyph-name="numbersign" unicode="#" horiz-adv-x="700" 
d="M125 56l18 105h-46q-22 0 -37 15t-15 36.5t15 37t37 15.5h64l30 174h-58q-21 0 -36.5 15.5t-15.5 36.5t15.5 36.5t36.5 15.5h76l20 119q3 19 17.5 31t36.5 12t37.5 -18.5t12.5 -42.5l-18 -101h157l20 119q3 19 18 31t37 12t37.5 -19t11.5 -42l-17 -101h46q21 0 36.5 -15
t15.5 -36.5t-15.5 -37t-36.5 -15.5h-64l-30 -174h57q22 0 37 -15t15 -36.5t-15 -37t-37 -15.5h-75l-21 -123q-3 -19 -17.5 -31t-36.5 -12t-38 18.5t-12 42.5l19 105h-157l-21 -123q-3 -18 -17.5 -30.5t-37 -12.5t-38 18t-11.5 43zM268 265h156l30 174h-156z" />
    <glyph glyph-name="dollar" unicode="$" horiz-adv-x="632" 
d="M293 720q0 18 13 30.5t31 12.5t30.5 -12.5t12.5 -30.5v-22q83 -10 155 -55q30 -17 30 -44t-16.5 -43t-35.5 -16t-34 9q-54 33 -103 44v-192q114 -29 165.5 -77.5t51.5 -129t-58 -133t-155 -61.5v-60q0 -18 -12.5 -30.5t-30.5 -12.5t-31 12.5t-13 30.5v62q-111 12 -205 78
q-27 17 -27 44t16 43t37 16t35 -11q74 -54 148 -67v197q-112 29 -163 76t-51 128.5t58 133t152 59.5v21zM449.5 129q25.5 23 25.5 58t-21.5 57t-77.5 39v-182q48 5 73.5 28zM225.5 572q-24.5 -23 -24.5 -56.5t20 -54.5t76 -39v177q-47 -4 -71.5 -27z" />
    <glyph glyph-name="ampersand" unicode="&#x26;" horiz-adv-x="696" 
d="M256 379q-2 -6 -4 -7.5t-6 -5.5q-5 -5 -13 -9q-33 -16 -53 -47.5t-20 -77.5t37.5 -83.5t91.5 -37.5t92 37.5t38 91.5v6q-61 -1 -76 -19q-8 -8 -8 -17q0 -8 1 -16q7 -25 -8.5 -48t-44.5 -23q-59 0 -59 82q-2 60 41 101q53 51 156 51q22 0 33 -1h4q11 0 14 3v7q0 8 -1 15
q-6 22 6 41.5t35 24.5t42.5 -7.5t23.5 -34.5q15 -47 -6 -93q-12 -27 -32 -42q-5 -2 -11 -6q1 -8 1 -24q0 -100 -70.5 -170t-170.5 -70t-170 70t-70 173t78 173q-28 45 -28 98q0 77 54.5 131.5t131.5 54.5t131.5 -54.5t54.5 -131.5q0 -23 -16 -39t-39 -16t-39.5 16
t-16.5 43.5t-22 49t-53 21.5t-53 -22t-22 -57t32 -57q17 -14 21.5 -34.5t-6.5 -39.5h-1z" />
    <glyph glyph-name="quotesingle" unicode="'" horiz-adv-x="230" 
d="M69 433l18 214q2 24 17.5 40t39.5 16h39q15 0 24.5 -9t9.5 -19.5t-4 -26.5l-73 -222q-11 -31 -37 -31q-15 0 -25 10.5t-9 27.5z" />
    <glyph glyph-name="parenleft" unicode="(" horiz-adv-x="430" 
d="M308 -94q-67 0 -115 38q-122 98 -122 362q0 266 120 360q51 40 119 40q26 0 44.5 -18.5t18.5 -44.5t-18.5 -45t-44 -19t-43.5 -13.5t-34 -48.5q-37 -75 -35 -211q-2 -100 18.5 -168.5t51.5 -91.5q17 -13 42.5 -13.5t44 -19t18.5 -44.5t-18.5 -44.5t-44.5 -18.5h-2z" />
    <glyph glyph-name="parenright" unicode=")" horiz-adv-x="430" 
d="M242 -55q-50 -39 -117 -39h-2q-26 0 -44.5 18.5t-18.5 44.5t18.5 44.5t44 19t42.5 13.5q31 23 51.5 91.5t18.5 168.5q2 136 -35 211q-16 35 -34 48.5t-43.5 13.5t-44 19t-18.5 45t18.5 44.5t44.5 18.5q68 0 119 -40q120 -94 120 -360.5t-120 -360.5z" />
    <glyph glyph-name="asterisk" unicode="*" horiz-adv-x="430" 
d="M199 414l10 90l-75 -55q-15 -10 -26.5 -10t-21.5 10t-10 27.5t23 27.5l88 38l-88 39q-23 10 -23 27t10 27t22.5 10t25.5 -10l75 -55l-10 89q-2 16 7 27t24 11t24 -10.5t7 -26.5l-10 -90l75 55q13 10 25.5 10t22.5 -9.5t10 -27t-23 -27.5l-88 -39l88 -38q23 -10 23 -27.5
t-10 -27.5t-21.5 -10t-26.5 10l-75 55l10 -89q2 -16 -7 -27t-24 -11t-24 10.5t-7 26.5z" />
    <glyph glyph-name="plus" unicode="+" horiz-adv-x="620" 
d="M261 158v139h-142q-23 0 -39 16t-16 38.5t16 39t39 16.5h142v139q0 24 16.5 40.5t40 16.5t40.5 -16.5t17 -40.5v-139h142q23 0 39 -16.5t16 -39t-16 -38.5t-39 -16h-142v-139q0 -24 -17 -40.5t-40.5 -16.5t-40 16.5t-16.5 40.5z" />
    <glyph glyph-name="comma" unicode="," horiz-adv-x="230" 
d="M54 -117q0 22 23 27q71 23 68 90q-24 7 -40.5 25t-16.5 43v8q0 29 19 48t51 19t51 -23.5t19 -64.5v-11q0 -95 -49 -146q-45 -43 -94 -43q-31 0 -31 28z" />
    <glyph glyph-name="hyphen" unicode="-" horiz-adv-x="408" 
d="M125 247q-24 0 -41.5 17.5t-17.5 42t17.5 42t41.5 17.5h188q24 0 41.5 -17.5t17.5 -42t-17.5 -42t-41.5 -17.5h-188z" />
    <glyph glyph-name="period" unicode="." horiz-adv-x="230" 
d="M82 67q0 31 21.5 53t52.5 22t53 -22t22 -53t-22 -52.5t-53 -21.5t-52.5 21.5t-21.5 52.5z" />
    <glyph glyph-name="slash" unicode="/" horiz-adv-x="422" 
d="M186 33q-14 -33 -48 -33t-49 25t-4 51l245 583q9 21 30 29.5t42 0t29.5 -30t-0.5 -41.5z" />
    <glyph glyph-name="zero" unicode="0" horiz-adv-x="710" 
d="M65 350q2 142 68 239q73 111 186 111q56 0 104 -30.5t81 -80.5q67 -100 67 -239t-67 -239q-33 -50 -81.5 -80.5t-103.5 -30.5q-112 0 -186 111q-66 97 -68 239zM412 173q48 72 48 176.5t-48 178.5q-43 63 -93 61q-50 2 -95 -61q-48 -74 -48 -178.5t48 -176.5
q43 -62 94.5 -62t93.5 62z" />
    <glyph glyph-name="one" unicode="1" horiz-adv-x="335" 
d="M235 697l10 -4l9 -7q14 -13 14 -18.5t1 -7t1.5 -6t2.5 -6.5v-593q0 -23 -16.5 -39t-39.5 -16t-39 16t-16 39v492l-40 -23q-12 -8 -28 -8q-31 0 -47 28q-13 19 -7.5 41.5t25.5 33.5l123 73l4 2l5 3l6 1q2 2 11 2h11q1 -1 3.5 -1t6.5 -2z" />
    <glyph glyph-name="two" unicode="2" horiz-adv-x="590" 
d="M462 111q23 0 39 -16.5t16 -39.5t-16 -39t-39 -16h-356q-26 0 -41.5 17.5t-14.5 40t18 38.5l296 268q42 38 42 92t-35.5 93.5t-89 39.5t-91.5 -33l-31 -28q-17 -16 -39.5 -14.5t-38.5 18.5q-15 17 -14 39.5t18 38.5l31 28q66 62 167 62t172 -79q62 -66 62 -167t-79 -172
l-189 -171h213z" />
    <glyph glyph-name="three" unicode="3" horiz-adv-x="610" 
d="M374 474q42 -19 70 -49q73 -72 73 -175t-73 -176t-175.5 -73t-175.5 73q-17 16 -17 40t17 40t40 16t40 -16q39 -39 95 -39t96 39.5t40 95.5t-38.5 94.5t-96.5 40.5q-25 -2 -41 18q-1 0 -1 1q-17 16 -17.5 39.5t15.5 40.5l102 104h-162q-23 0 -39.5 16.5t-16.5 40t16.5 40
t39.5 16.5h295q24 0 40.5 -16.5t16.5 -40t-17 -40.5z" />
    <glyph glyph-name="four" unicode="4" horiz-adv-x="664" 
d="M492 699q2 -2 6 -2l4 -1q4 -4 7.5 -5.5t3.5 -2.5q3 0 3 -2q7 -7 11 -13l4 -10q2 -8 2 -10l1 -5v-407h10q23 0 39.5 -16t16.5 -39t-16.5 -39t-39.5 -16h-10v-76q0 -23 -16 -39t-39 -16t-39 16t-16 39v76h-315q-21 0 -34 12q-19 14 -21 36.5t12 40.5l370 460q2 0 5 6
q2 1 6.5 4.5t8.5 3.5q2 3 4 3l6 2q3 0 4 1h17q2 -1 5 -1zM424 241v247l-199 -247h199z" />
    <glyph glyph-name="five" unicode="5" horiz-adv-x="605" 
d="M69 365l-1 7q-4 8 -1 19l30 259q5 26 25 40q20 10 33 10h295q24 0 40.5 -16.5t16.5 -40t-16.5 -40t-40.5 -16.5h-246l-12 -99q33 9 67 9q103 0 175.5 -72.5t72.5 -175.5t-72.5 -176t-175.5 -73h-2q-104 0 -174 73q-17 16 -17 39.5t16.5 40.5t40 17t40.5 -17
q39 -40 95.5 -40t96 40t39.5 96t-39 95t-96.5 39t-95.5 -39q-17 -16 -40 -16q-28 0 -45 22q-4 5 -6 7q0 5 -3 8z" />
    <glyph glyph-name="six" unicode="6" horiz-adv-x="642" 
d="M67 217l-3 59q0 125 42 224t122 152q66 44 150 47q23 1 39.5 -14.5t18 -38t-14.5 -39.5t-39 -19q-51 -1 -96.5 -30.5t-73.5 -93.5q45 20 96 20q101 0 172 -71t71 -171t-71 -171t-168.5 -71t-166.5 62.5t-78 154.5zM308 111q55 0 93.5 38t38.5 92.5t-38.5 93.5t-93 39
t-93 -39t-38.5 -93.5t38 -92.5t93 -38z" />
    <glyph glyph-name="seven" unicode="7" horiz-adv-x="587" 
d="M514 661q7 -14 -1 -37l-250 -591q-13 -33 -47.5 -33t-49.5 25.5t-5 50.5l216 513h-258q-22 0 -38.5 16.5t-16.5 39.5t16 39t39 16h343q10 0 31 -9l3 -3q13 -7 13 -17q1 -2 4 -5q1 -4 1 -5z" />
    <glyph glyph-name="eight" unicode="8" horiz-adv-x="630" 
d="M426 437q49 -33 78 -85.5t29 -113.5q0 -98 -70 -168t-168.5 -70t-169 70t-70.5 168q0 61 28.5 113.5t78.5 85.5q-33 42 -33 104.5t48.5 110.5t116.5 48t116.5 -48t48.5 -110.5t-33 -104.5zM334 574.5q-16 16.5 -39.5 16.5t-40 -16t-16.5 -39t16.5 -40t39.5 -17t39.5 17
t16.5 39.5t-16 39zM203 147q38 -38 91.5 -38t91.5 38t38 91t-38 91.5t-91.5 38.5t-91.5 -38t-39 -92q1 -53 39 -91z" />
    <glyph glyph-name="nine" unicode="9" horiz-adv-x="642" 
d="M550 483l3 -59q0 -125 -42 -224t-122 -152q-66 -44 -150 -47q-23 -1 -39.5 14.5t-18 38t14.5 39.5t39 19q51 1 96.5 30.5t73.5 93.5q-45 -20 -96 -20q-101 0 -172 71t-71 171t71 171t168.5 71t166.5 -62.5t78 -154.5zM309 589q-55 0 -93.5 -38t-38.5 -92.5t38.5 -93.5
t93 -39t93 39t38.5 93.5t-38 92.5t-93 38z" />
    <glyph glyph-name="colon" unicode=":" horiz-adv-x="240" 
d="M87 67q0 31 21.5 53t52.5 22t53 -22t22 -53t-22 -52.5t-53 -21.5t-52.5 21.5t-21.5 52.5zM87 465q0 31 21.5 53t52.5 22t53 -22t22 -53t-22 -52.5t-53 -21.5t-52.5 21.5t-21.5 52.5z" />
    <glyph glyph-name="semicolon" unicode=";" horiz-adv-x="240" 
d="M96 457q0 36 25 60.5t62 24.5t62 -24.5t25 -60.5v-2q0 -36 -25 -60.5t-62 -24.5t-62 24.5t-25 60.5v2zM59 -128q0 26 30 33q38 9 58.5 34t18.5 61q-29 7 -49.5 29.5t-20.5 52.5v2q0 36 23 59t62.5 23t63 -30t23.5 -82v-4q0 -105 -59 -164q-48 -48 -112 -48q-38 0 -38 34z
" />
    <glyph glyph-name="less" unicode="&#x3c;" horiz-adv-x="620" 
d="M66 373l5 9q0 2 2 2q2 4 6 7l281 285q19 18 45.5 18t45 -18.5t18.5 -44.5t-19 -45l-237 -239l237 -239q19 -20 19 -45.5t-19 -44.5q-20 -18 -45 -18t-45 18l-281 285q-3 1 -5 6q-4 3 -6 10q-3 1 -3 4.5t-2 5.5q0 2 -2 5v7l-1 6l1 5v7l3 8q0 5 1 5t1 1z" />
    <glyph glyph-name="equal" unicode="=" horiz-adv-x="620" 
d="M79 295q0 15 10.5 25.5t25.5 10.5h186q15 0 25 -10.5t10 -25.5t-10 -25.5t-25 -10.5h-186q-15 0 -25.5 10.5t-10.5 25.5zM89.5 382q-10.5 10 -10.5 24.5t10.5 25t25.5 10.5h186q15 0 25 -10.5t10 -25t-10 -24.5t-25 -10h-186q-15 0 -25.5 10z" />
    <glyph glyph-name="greater" unicode="&#x3e;" horiz-adv-x="620" 
d="M503 334q-5 -10 -5 -14l-5 -9q0 -1 -1 -1l-288 -292q-18 -18 -44 -18t-46 18q-19 19 -19 44.5t19 45.5l237 239l-237 239q-19 19 -19 45t18.5 44.5t45 18.5t45.5 -18l288 -292q2 -4 3.5 -6.5t2 -4t1 -1.5t0.5 -1l4 -12v-7q1 -4 1 -5l-1 -5v-8z" />
    <glyph glyph-name="question" unicode="?" horiz-adv-x="534" 
d="M197.5 101.5q14.5 14.5 35 14.5t34.5 -14.5t14 -34.5v-18q0 -21 -14 -35t-34.5 -14t-35 14t-14.5 35v18q0 20 14.5 34.5zM381 638.5q62 -61.5 62 -142t-46 -137t-116 -73.5v-65q0 -21 -14 -35t-34.5 -14t-35 14t-14.5 35v104q0 1 0.5 1t0 1t-0.5 2q0 19 14.5 34t34.5 15
q47 0 80.5 33t33.5 79.5t-33.5 79t-80.5 32.5q-64 0 -96 -55q-11 -18 -30.5 -23t-37.5 5q-17 11 -22 30t5 37q27 47 75.5 75.5t105.5 28.5q87 0 149 -61.5z" />
    <glyph glyph-name="at" unicode="@" horiz-adv-x="980" 
d="M402 553q81 0 137.5 -59.5t56.5 -142.5v-131q1 1 3 2.5t4 3.5q38 38 38 131t-69.5 162.5t-168.5 69.5t-169 -70t-70 -168.5t70 -168.5t168 -70q32 0 57 6t45 -5.5t25 -34t-6.5 -42t-33.5 -25.5q-44 -11 -87 -11q-145 1 -247 103.5t-102 247t102 247t247 102.5
t247.5 -102.5t102.5 -246.5q0 -89 -39 -161v-1q-1 -1 -4 -6q-12 -20 -21 -29q-51 -51 -104 -51q-33 -1 -58 18.5t-34 48.5q-42 -22 -90 -22q-82 0 -137.5 59.5t-55.5 143t56 143t137 59.5zM402 259q36 0 59.5 27t23.5 64.5t-24 64.5t-59 27t-58.5 -27t-23.5 -64.5t23 -64.5
t59 -27z" />
    <glyph glyph-name="A" unicode="A" horiz-adv-x="646" 
d="M510 35l-49 130h-243l-49 -130q-14 -35 -48.5 -35t-49.5 24.5t-6 50.5l221 589q7 16 21.5 26t31.5 9q38 2 53 -35l221 -589q9 -26 -6 -50.5t-49.5 -24.5t-47.5 35zM258 275h162l-81 215z" />
    <glyph glyph-name="B" unicode="B" horiz-adv-x="594" 
d="M163 0l-1 1q-1 0 -3 -1q-23 0 -39 16t-16 39v590q0 23 16 39t39 16h142q79 0 134.5 -55.5t55.5 -126.5t-38 -122q46 -29 73.5 -77t27.5 -104q0 -89 -62.5 -152t-151.5 -63h-177zM215 589v-160h86q33 0 56 24t23 57t-23 56t-56 23h-86zM215 318v-207h125q43 1 73 31t30 73
t-30 72.5t-73 30.5h-125z" />
    <glyph glyph-name="C" unicode="C" horiz-adv-x="771" 
d="M260 534q-73 -75 -73 -176t74.5 -172.5t172.5 -71.5t167 55q17 13 41 10t39 -21q14 -19 11 -42.5t-21 -37.5q-100 -78 -231 -78q-150 0 -258 105.5t-109 254.5q1 148 109 253.5t258 106.5q131 0 231 -78q18 -15 21 -38t-11.5 -42t-38.5 -22t-41 11q-67 55 -165.5 55
t-175.5 -72z" />
    <glyph glyph-name="D" unicode="D" horiz-adv-x="719" 
d="M104 55v590q0 23 16 39t39 16h118q145 0 247 -102.5t102 -247.5t-102 -247.5t-247 -102.5h-118q-23 0 -39 16t-16 39zM215 589v-478h62q99 1 168.5 70.5t69.5 168.5t-69.5 169t-168.5 70h-62z" />
    <glyph glyph-name="E" unicode="E" horiz-adv-x="593" 
d="M159 0q-23 0 -39 16t-16 39v590q0 23 16 39t39 16h327q22 0 38.5 -16t16.5 -39t-16.5 -39.5t-38.5 -16.5h-271v-183h233q22 0 38.5 -16.5t16.5 -39t-16 -39t-39 -16.5h-233v-184h271q22 0 38.5 -16.5t16.5 -39t-16.5 -39t-38.5 -16.5h-324l-2 1z" />
    <glyph glyph-name="F" unicode="F" horiz-adv-x="605" 
d="M159 0q-23 0 -39 16t-16 39v590q0 23 16 39t39 16h327q22 0 38.5 -16.5t16.5 -39t-16.5 -39t-38.5 -16.5h-271v-183h233q22 0 38.5 -16.5t16.5 -39t-16 -39t-39 -16.5h-233v-240q0 -23 -16.5 -39t-39.5 -16z" />
    <glyph glyph-name="G" unicode="G" horiz-adv-x="814" 
d="M693 125q0 -12 -5 -22v-1q-5 -14 -19 -24q-100 -78 -227 -78q-153 0 -261 104.5t-108 254.5t108 255.5t261 105.5q129 0 228 -78q19 -14 22 -38t-11 -42.5t-38 -21.5t-43 12q-70 54 -166.5 54t-171.5 -72t-75 -174t75.5 -174t179.5 -72q71 0 137 38v137h-143
q-23 0 -40 17t-17 40.5t16.5 39.5t40.5 16h199q24 0 41 -16t17 -40v-221z" />
    <glyph glyph-name="H" unicode="H" horiz-adv-x="709" 
d="M159 0q-23 0 -39 16t-16 39v590q0 23 16 39t39 16t39.5 -16t16.5 -39v-240h259v240q0 23 16 39t39 16t39.5 -16t16.5 -39v-590q0 -23 -16.5 -39t-39.5 -16t-39 16t-16 39v240h-259v-240q0 -23 -16.5 -39t-39.5 -16z" />
    <glyph glyph-name="I" unicode="I" horiz-adv-x="305" 
d="M111 645q0 23 16 39t39 16t39.5 -16t16.5 -39v-590q0 -23 -16.5 -39t-39.5 -16t-39 16t-16 39v590z" />
    <glyph glyph-name="J" unicode="J" horiz-adv-x="594" 
d="M55.5 214.5q10.5 20.5 32 27t42 -3.5t27.5 -32q14 -42 50 -68.5t87 -26.5t91.5 40.5t40.5 96.5v397q0 23 16.5 39t39.5 16t39 -16t16 -39v-397q0 -103 -73 -175.5t-176 -72.5q-82 0 -147 48t-89 124q-7 22 3.5 42.5z" />
    <glyph glyph-name="K" unicode="K" horiz-adv-x="715" 
d="M159 0q-23 0 -39 16t-16 39v585q0 22 16 38.5t39 16.5t39 -16.5t16 -38.5v-287l324 325q16 16 39 16t39 -16t16 -39t-16 -39l-220 -219l222 -291q23 -27 6.5 -58.5t-45 -31.5t-45.5 20l-216 283l-104 -106v-142q0 -23 -16 -39t-39 -16z" />
    <glyph glyph-name="L" unicode="L" horiz-adv-x="563" 
d="M159 0q-23 0 -39 16t-16 39v590q0 23 16 39t39 16t39.5 -16t16.5 -39v-534h271q22 0 38.5 -16.5t16.5 -39t-16.5 -39t-38.5 -16.5h-327z" />
    <glyph glyph-name="M" unicode="M" horiz-adv-x="844" 
d="M406 253h-2q-29 0 -46 23l-143 200v-421q0 -23 -16.5 -39t-39.5 -16t-39 16t-16 39v590q0 23 16 39t39 16h3q29 0 44 -23l199 -276l199 276q17 23 45 23h1q23 -1 39.5 -17t16.5 -38v-590q0 -22 -16.5 -38.5t-39.5 -16.5t-39 16t-16 39v421l-144 -200q-17 -23 -45 -23z
" />
    <glyph glyph-name="N" unicode="N" horiz-adv-x="771" 
d="M214 470v-415q0 -22 -16 -38.5t-38.5 -16.5t-38.5 16t-16 39v582q-2 29 19.5 44t43.5 11.5t35 -21.5l323 -447v412q0 22 16 38t38 16t38.5 -16t16.5 -38v-581q0 -23 -16.5 -39t-39.5 -16t-40 20q-4 4 -5 6z" />
    <glyph glyph-name="O" unicode="O" horiz-adv-x="850" 
d="M73 360q0 148 99.5 254t242.5 106t242.5 -107.5t99.5 -253.5t-101 -252q-45 -50 -108 -78.5t-131 -28.5q-145 0 -244.5 106t-99.5 254zM254 186.5q67 -72.5 161.5 -72.5t161 73.5t66.5 172.5t-66 172.5t-161.5 73.5t-162 -72.5t-66.5 -173.5t67 -173.5z" />
    <glyph glyph-name="P" unicode="P" horiz-adv-x="583" 
d="M490 637q63 -63 63 -151.5t-63 -151t-152 -62.5h-123v-217q0 -23 -16.5 -39t-39.5 -16t-39 16t-16 39v590q0 23 16 39t39 16h179q89 0 152 -63zM215 589v-206h123q43 0 73 30t31 72q-1 44 -31 74t-73 30h-123z" />
    <glyph glyph-name="Q" unicode="Q" horiz-adv-x="844" 
d="M166 80q-100 111 -100 261.5t102 259.5t250 109t246 -111q102 -107 102 -259t-102 -260q-47 -49 -111 -79l-23 -9q66 -36 113 -36t97 38q19 15 42.5 12t38.5 -22t12 -43t-23 -40q-82 -63 -165 -63h-3q-82 0 -183 60q-27 15 -54.5 15t-50 -6.5t-27.5 -10.5q-32 -18 -58 3
q-3 3 -8 3q-28 39 -18.5 64t31.5 36l3 2q-61 29 -111 76zM582.5 163q67.5 74 67.5 177.5t-68 177.5t-166 74t-163 -73q-69 -71 -69 -176t66.5 -179.5t165.5 -74.5t166.5 74z" />
    <glyph glyph-name="R" unicode="R" horiz-adv-x="625" 
d="M460 321q68 -52 68 -145q-1 -33 4 -59q26 -8 35 -34.5t-8 -49.5t-49 -23h-1q-45 0 -71 46q-21 44 -21 120q-2 46 -42 72q-26 17 -56 24h-118v-217q0 -23 -16.5 -39t-39.5 -16t-39 16t-16 39v590q0 23 16 39t39 16h179q89 0 151.5 -63t62.5 -157t-78 -159zM324 383
q43 0 73 30t30 72.5t-30 73t-73 30.5h-123v-206h123z" />
    <glyph glyph-name="S" unicode="S" horiz-adv-x="667" 
d="M514 213q0 76 -176 109h-2q-78 15 -135 42t-83.5 69.5t-26.5 87.5q0 87 76.5 143t176.5 56q44 0 90 -15t68.5 -28t59.5 -37q17 -12 21.5 -33t-7 -38.5t-32.5 -22t-39 7.5q-47 32 -83.5 48t-77.5 16q-66 0 -108 -31t-42 -66q0 -17 8 -29q28 -46 151 -69h2q84 -17 138 -42
q124 -61 124 -168q0 -93 -82 -152.5t-189 -59.5q-131 1 -256 100q-16 13 -18.5 35t10.5 38t35 18.5t38 -11.5q96 -78 191 -77q75 0 121.5 34.5t46.5 74.5z" />
    <glyph glyph-name="T" unicode="T" horiz-adv-x="648" 
d="M587 645q0 -23 -16.5 -39.5t-38.5 -16.5h-159v-534q0 -23 -16 -39t-39 -16t-39 16t-16 39v534h-158q-23 0 -39 16.5t-16 39.5t16 39t39 16h427q23 0 39 -16t16 -39z" />
    <glyph glyph-name="U" unicode="U" horiz-adv-x="814" 
d="M683 289q0 -119 -84.5 -204t-204.5 -85t-204.5 84.5t-84.5 204.5v356q0 23 16 39t39 16t39.5 -16t16.5 -39v-356q0 -73 52 -125.5t126 -52.5t126 52t52 126v356q0 23 16.5 39t39.5 16t39 -16t16 -39v-356z" />
    <glyph glyph-name="V" unicode="V" horiz-adv-x="750" 
d="M342 4q-3 0 -9 6h-1q-1 1 -7 5q-1 2 -3 4.5t-3 3.5t-2.5 4.5t-3.5 5.5l-245 584q-9 20 -0.5 41.5t30.5 29.5q20 9 41 0.5t30 -29.5l195 -463l195 463q9 21 30.5 29.5t41.5 -0.5q21 -8 29.5 -29.5t0.5 -41.5l-247 -584l-4 -8q0 -1 -1 -2l-13 -13q-2 -2 -6.5 -4t-13.5 -5
h-2q-4 -1 -10.5 -1t-9.5 1h-2q-4 2 -8 2l-1 1h-1z" />
    <glyph glyph-name="W" unicode="W" horiz-adv-x="1102" 
d="M398 10l-8 -6h-1q-3 0 -9 -3h-3q-3 -1 -9.5 -1t-9.5 1h-3q-6 2 -7 2.5t-3.5 1.5t-7.5 5h-1q-4 3 -8 7.5t-6 6.5v1q-1 1 -2.5 4.5t-2.5 4.5l-246 583q-8 21 0.5 42t29.5 29q20 9 41.5 0.5t29.5 -29.5l196 -463l129 307q14 34 51.5 34t52.5 -34l129 -307l195 463
q9 21 30 29.5t42 0t29.5 -30t-0.5 -41.5l-245 -583q-2 -8 -11 -16q0 -1 -1 -3q-4 -2 -7 -5h-1l-9 -6h-1q-1 0 -2 -0.5t-7 -2.5h-2q-3 -1 -9.5 -1t-9.5 1h-3q-6 2 -7 2.5t-3.5 1t-7.5 5.5h-1q-9 6 -13 14q-4 2 -6 10l-131 310l-131 -310q-1 -3 -4 -9l-7 -7q0 -1 -1 -3
q-2 -1 -6 -5h-2z" />
    <glyph glyph-name="X" unicode="X" horiz-adv-x="722" 
d="M552 691.5q22 3.5 40.5 -10t22 -35.5t-9.5 -41l-190 -258l190 -260q19 -27 3.5 -57t-45 -30t-47.5 23l-168 231l-169 -231q-18 -23 -47.5 -23t-45 30t3.5 57l190 260l-190 258q-13 19 -9.5 41t22 35.5t41 10t35.5 -22.5l169 -230l168 230q14 19 36 22.5z" />
    <glyph glyph-name="Y" unicode="Y" horiz-adv-x="604" 
d="M538.5 692.5q22.5 3.5 40.5 -10t21.5 -36t-9.5 -40.5l-205 -281v-270q0 -23 -16 -39t-38.5 -16t-39 16t-16.5 39v270l-203 281q-14 18 -11 40t22 36t41 10.5t35 -22.5l171 -234l171 234q14 19 36.5 22.5z" />
    <glyph glyph-name="Z" unicode="Z" horiz-adv-x="667" 
d="M565 700l14 -4q3 0 6 -3t4 -3h1q3 -1 6 -5.5t4.5 -5.5t3.5 -4.5t2.5 -5t2.5 -3.5l3 -11q1 -3 1 -6v-11q-1 -2 -1 -4l-2 -6l-7 -14v-2l-368 -501h322q23 0 39.5 -16.5t16.5 -39.5t-16.5 -39t-39.5 -16h-431q-6 0 -12 0.5t-11 5.5q-5 0 -9 4v1q-3 0 -7 7l-7 7l-2 5
q-4 7 -4 8l-3 14v4q0 5 1 7v5q3 3 3 10q3 2 3.5 3.5t2.5 5.5h1l367 502h-323q-23 0 -39 16.5t-16 39.5t16 39t39 16h439z" />
    <glyph glyph-name="bracketleft" unicode="[" horiz-adv-x="430" 
d="M98 -70v710q0 25 17 42.5t42 17.5h206q19 0 33.5 -14t14.5 -33.5t-14 -33.5t-34 -14h-149v-640h149q20 0 34 -14t14 -33.5t-14.5 -33.5t-33.5 -14h-206q-25 0 -42 17.5t-17 42.5z" />
    <glyph glyph-name="backslash" unicode="\" horiz-adv-x="448" 
d="M389 4q-8 -4 -20 -4q-37 0 -51 33l-245 584q-9 20 -0.5 41.5t29.5 30t42 0t30 -29.5l245 -583q9 -21 0.5 -42.5t-30.5 -29.5z" />
    <glyph glyph-name="bracketright" unicode="]" horiz-adv-x="430" 
d="M368 640v-710q0 -25 -17.5 -42.5t-42.5 -17.5h-206q-19 0 -33 14t-14 34t13.5 33.5t33.5 13.5h150v640h-150q-20 0 -33.5 13.5t-13.5 33.5t14 34t33 14h206q25 0 42.5 -17.5t17.5 -42.5z" />
    <glyph glyph-name="asciicircum" unicode="^" horiz-adv-x="500" 
d="M252 625l-72 -93q-20 -26 -35 -35t-40 -9t-25 20q0 14 12 30l95 130q25 36 61 36h9q35 0 62 -36l95 -130q11 -17 11 -30q0 -20 -25.5 -20t-40.5 9t-35 35z" />
    <glyph glyph-name="underscore" unicode="_" horiz-adv-x="600" 
d="M23 -160q-19 0 -33 14t-14 33t14 33t33 14h604q19 0 33 -14t14 -33t-14 -33t-33 -14h-604z" />
    <glyph glyph-name="grave" unicode="`" horiz-adv-x="500" 
d="M349 611q0 -21 -36.5 -21t-64.5 27l-68 64q-17 15 -17 29.5t23.5 27t51 12.5t45.5 -29l57 -88q9 -13 9 -22z" />
    <glyph glyph-name="a" unicode="a" horiz-adv-x="619" 
d="M108.5 73q-68.5 73 -68.5 176.5t68.5 177t169.5 73.5q71 0 133 -44q5 19 19 31.5t34.5 12.5t36 -16t15.5 -38v-393q0 -22 -15.5 -37.5t-36 -15.5t-34.5 12t-19 31q-61 -43 -133 -43q-101 0 -169.5 73zM183.5 148q36.5 -41 94 -41t95 41t37.5 101t-38 102t-94.5 42
t-93.5 -41.5t-37 -102t36.5 -101.5z" />
    <glyph glyph-name="b" unicode="b" horiz-adv-x="660" 
d="M93 54v592q0 22 16 38t38.5 16t38.5 -16t16 -38v-188q60 42 134 42q101 0 172 -74t71 -176.5t-71 -176t-172 -73.5q-73 0 -136 43q-4 -18 -18.5 -30.5t-35.5 -12.5t-37 16t-16 38zM336 391q-56 0 -95 -42t-39 -99.5t39.5 -99t94.5 -41.5t94.5 41.5t39.5 99t-39 99.5
t-95 42z" />
    <glyph glyph-name="c" unicode="c" horiz-adv-x="571" 
d="M133 73.5q-75 73.5 -75 176.5t75 176t179 74q87 0 159 -55q17 -13 20 -35.5t-10.5 -39.5t-35 -20t-38.5 11q-44 32 -99.5 32t-99.5 -43t-44 -101t43.5 -100.5t99.5 -42.5t100 32q16 13 38 10t35.5 -20t10.5 -38.5t-20 -36.5q-74 -53 -159 -53q-104 0 -179 73.5z" />
    <glyph glyph-name="d" unicode="d" horiz-adv-x="660" 
d="M546 54q0 -22 -16 -38t-37 -16t-35.5 12.5t-18.5 30.5q-63 -43 -136 -43q-101 0 -172 73.5t-71 176t71 176.5t172 74q74 0 134 -42v188q0 22 16 38t38.5 16t38.5 -16t16 -38v-592zM397.5 150.5q39.5 41.5 39.5 99t-39 99.5t-95 42t-95 -42t-39 -99.5t39.5 -99t94.5 -41.5
t94.5 41.5z" />
    <glyph glyph-name="e" unicode="e" horiz-adv-x="609" 
d="M543 263q0 -22 -14.5 -35.5t-38.5 -13.5h-318q9 -43 34 -66q32 -37 93.5 -44.5t106.5 24.5q15 16 40 16t35 -13q28 -31 0 -65q-72 -66 -176.5 -65.5t-175 73.5t-71.5 176q1 103 71.5 176.5t170.5 73.5t168.5 -65.5t74.5 -166.5v-5zM302 405q-58 -3 -93 -36t-42 -70h283
q-9 35 -48.5 68t-99.5 38z" />
    <glyph glyph-name="f" unicode="f" horiz-adv-x="362" 
d="M337 606.5q-16 -16.5 -40.5 -16.5t-30.5 -6q-4 0 -6.5 -17t-2.5 -34v-14h30q23 0 39 -16t16 -38.5t-16 -39t-39 -16.5h-30v-353q0 -23 -16 -39t-39 -16t-39 16t-16 39v353h-26q-23 0 -39.5 16t-16.5 39t16.5 39t39.5 16h26v14q0 168 151 168q22 0 38.5 -16.5t16.5 -39
t-16 -39z" />
    <glyph glyph-name="g" unicode="g" horiz-adv-x="660" 
d="M130 72q-70 72 -70 175.5t70 178t170 74.5q76 0 134 -42q4 18 19 30t35.5 12t36 -15.5t15.5 -37.5v-386q0 -99 -70.5 -169.5t-169.5 -70.5q-57 0 -105 25q-20 9 -27 30.5t3 41.5t30.5 27t41.5 -2q26 -14 65.5 -14t76 30.5t46.5 76.5q-58 -40 -131 -40q-100 0 -170 76z
M206 146q38 -42 94.5 -42t94.5 41t38 102t-38.5 103.5t-93.5 42.5t-94 -43.5t-39 -102.5t38 -101z" />
    <glyph glyph-name="h" unicode="h" 
d="M187.5 16q-16.5 -16 -39 -16t-39 16t-16.5 39v590q0 23 16 39t39 16t39.5 -16t16.5 -39v-174q55 29 107 29q90 0 154 -64.5t64 -154.5v-226q0 -23 -16 -39t-39 -16t-39 16t-16 39v226q0 44 -31.5 75.5t-76.5 32.5q-44 -1 -75 -32.5t-32 -75.5v-226q0 -23 -16.5 -39z" />
    <glyph glyph-name="i" unicode="i" horiz-adv-x="281" 
d="M148 499q23 0 38.5 -15.5t15.5 -39.5v-390q0 -23 -15.5 -38.5t-38 -15.5t-38.5 16t-16 38v390q0 24 15.5 39.5t38.5 15.5zM202 646v-21q0 -23 -15.5 -39t-38 -16t-38.5 16t-16 39v21q0 22 16 38t38.5 16t38 -15.5t15.5 -38.5z" />
    <glyph glyph-name="j" unicode="j" horiz-adv-x="249" 
d="M106 569q-22 0 -38.5 16.5t-16.5 38.5v20q0 24 16 39.5t39 15.5t38.5 -15.5t15.5 -39.5v-20q0 -22 -16 -38.5t-38 -16.5zM50 -177q-24 0 -39.5 15.5t-15.5 38.5t15.5 38.5t39.5 15.5v514q0 23 16 39t38.5 16t38 -16t15.5 -39v-514q0 -44 -31.5 -76t-76.5 -32z" />
    <glyph glyph-name="k" unicode="k" horiz-adv-x="560" 
d="M148 0q-23 0 -39 16t-16 39v590q0 23 16 39t39 16t39.5 -16t16.5 -39v-346l205 205q16 16 39 16t39.5 -16t16.5 -39t-17 -39l-150 -150l154 -185q22 -28 6 -59.5t-46 -31.5t-45 20l-147 178l-55 -55v-88q0 -23 -16.5 -39t-39.5 -16z" />
    <glyph glyph-name="l" unicode="l" horiz-adv-x="249" 
d="M100 645q0 23 16 39t39 16t39.5 -16t16.5 -39v-590q0 -23 -16.5 -39t-39.5 -16t-39 16t-16 39v590z" />
    <glyph glyph-name="m" unicode="m" horiz-adv-x="951" 
d="M146 0l-10 1q-19 5 -31 19t-12 33v393q0 23 15.5 38.5t37.5 15.5q35 0 48 -30q51 30 107 30q96 0 157 -69q59 69 151 69t153 -61.5t61 -148.5v-237q0 -22 -15.5 -37.5t-37.5 -15.5t-38 15.5t-16 37.5v237q0 43 -30 73t-71.5 30t-71.5 -29t-32 -71v-240q0 -22 -15.5 -37.5
t-37 -15.5t-38 16t-16.5 37v240q-1 41 -31 70.5t-71.5 29.5t-71.5 -30t-30 -73v-237l-1 -7v-3l-3 -6v-5q-16 -32 -50 -32z" />
    <glyph glyph-name="n" unicode="n" 
d="M201 53q0 -22 -17 -37.5t-38.5 -15.5t-37 15.5t-15.5 37.5v394q0 22 15.5 37.5t37.5 15.5q34 0 49 -31q49 31 106 31q87 0 148 -61.5t61 -146.5v-239q0 -22 -15 -37.5t-36.5 -15.5t-37.5 15.5t-16 37.5v239q0 42 -30.5 71.5t-73 29.5t-71.5 -29.5t-29 -71.5v-239z" />
    <glyph glyph-name="o" unicode="o" horiz-adv-x="625" 
d="M311 -3q-101 0 -171 74t-70 177t70.5 177.5t169.5 74.5t168.5 -75.5t69.5 -179.5t-70 -172q-66 -76 -167 -76zM215 353q-36 -42 -36 -104t36 -106q39 -37 94 -37t94 37q39 44 39 106t-39 104q-43 38 -94 38t-94 -38z" />
    <glyph glyph-name="p" unicode="p" horiz-adv-x="660" 
d="M186.5 -171.5q-16.5 -16.5 -39 -16.5t-38.5 16.5t-16 37.5v581q0 22 15.5 37.5t37 15.5t37 -12t18.5 -29q63 41 136 41q100 0 171 -74t71 -177t-71 -175.5t-171 -72.5q-77 0 -134 41v-176q0 -21 -16.5 -37.5zM431 350q-39 41 -95 41t-94.5 -41.5t-38.5 -103.5t39 -97
q38 -42 93.5 -42t95 42t39.5 99.5t-39 101.5z" />
    <glyph glyph-name="q" unicode="q" horiz-adv-x="660" 
d="M530 -171q-16 -16 -38.5 -16t-38.5 16t-16 37v176q-61 -42 -134 -42q-101 0 -172 73t-71 176.5t71 177t172 73.5q70 0 136 -42q3 18 18 30t36 12t37 -16t16 -38v-580q0 -21 -16 -37zM209 349q-41 -43 -41 -100t40 -99.5t97 -42.5t91 42q41 38 41 100t-41 100
q-37 43 -91.5 43t-95.5 -43z" />
    <glyph glyph-name="r" unicode="r" horiz-adv-x="439" 
d="M201 440q23 27 63 43.5t73 16t48.5 -15.5t15.5 -36.5t-15.5 -37.5t-37.5 -16q-93 0 -147 -151v-190q0 -22 -16 -37.5t-38.5 -15.5t-38 15.5t-15.5 37.5v394q0 22 15.5 37t38 15t38.5 -15t16 -37v-7z" />
    <glyph glyph-name="s" unicode="s" horiz-adv-x="492" 
d="M402 445q18 -12 22.5 -33.5t-6.5 -40.5q-12 -18 -33.5 -22.5t-40.5 8.5q-56 37 -92.5 37t-59.5 -18q-16 -11 -16 -19.5t2.5 -12.5t10.5 -9q22 -15 73 -24l1 -1h1q53 -10 97 -30t65 -55t21 -69q0 -70 -63 -116q-58 -40 -130 -40q-93 1 -178 69q-16 13 -18.5 35.5
t11.5 38.5q13 18 36 20t39 -12q54 -45 110 -44q38 0 68 19q18 15 18 25.5t-3 14.5q-2 5 -13 12q-24 17 -80 28h-1q-53 10 -92.5 29t-63.5 55q-17 28 -17 63q0 65 59 110q54 37 123.5 37t149.5 -55z" />
    <glyph glyph-name="t" unicode="t" horiz-adv-x="400" 
d="M262 500q23 0 39.5 -16t16.5 -38.5t-16.5 -39t-39.5 -16.5h-25v-279q23 0 39 -16.5t16 -39.5t-16 -39t-39 -16q-46 0 -78.5 32.5t-32.5 78.5v279h-29q-23 0 -39 16t-16 39t16 39t39 16h29v145q0 23 16.5 39t39.5 16t39 -16t16 -39v-145h25z" />
    <glyph glyph-name="u" unicode="u" 
d="M502 208q0 -85 -62.5 -146.5t-148 -61.5t-147 61t-61.5 147v239q0 21 15.5 37t37.5 16t37.5 -16t15.5 -37v-239q0 -43 29.5 -72.5t72.5 -29.5t73.5 29.5t31.5 72.5v239q0 21 15 37t36.5 16t38 -16t16.5 -37v-239z" />
    <glyph glyph-name="v" unicode="v" horiz-adv-x="582" 
d="M255 4q-17 8 -19.5 13.5t-3.5 6.5q-3 1 -5 8l-162 388q-9 20 -0.5 39.5t29.5 28.5q18 9 38 0t29 -29l115 -272l116 272q8 20 27.5 29t40 0t29 -28.5t-0.5 -39.5l-164 -388q-2 -5 -4 -7t-4 -4.5t-6.5 -6.5t-6.5 -6.5t-5 -3.5h-2v-1q-4 0 -8 -2h-2q-4 -1 -9.5 -1t-9.5 1h-2
q-6 2 -8 2v1h-2z" />
    <glyph glyph-name="w" unicode="w" horiz-adv-x="861" 
d="M326 23q-18 -18 -22 -19h-2q-4 0 -7 -3h-2q-4 -1 -10.5 -1t-9.5 1h-3q-6 3 -10 4q-8 2 -8 6q-1 1 -4 3q-9 8 -9 10q-1 1 -2.5 4t-2.5 4l-164 388q-9 20 -0.5 40t28 28.5t39.5 0t28 -29.5l118 -269l70 167q14 32 49.5 32t48.5 -32l71 -167l118 269q7 21 27.5 29.5t40.5 0
t28.5 -28.5t-0.5 -40l-165 -388l-4 -8l-1 -1q-4 -7 -13 -12q0 -1 -0.5 -1t-4 -2.5t-5 -3t-2.5 -1t-7 -2.5h-2q-3 -1 -9.5 -1t-9.5 1h-2q-4 2 -7 2l-1 1h-1q-4 2 -9 6v1q-1 1 -6 5q-4 0 -7 7q-1 0 -1 1l-77 181l-71 -173q-1 -2 -5 -8v-1z" />
    <glyph glyph-name="x" unicode="x" horiz-adv-x="570" 
d="M403.5 492.5q21.5 3.5 39 -9t21 -34t-9.5 -37.5l-119 -164l119 -165q13 -17 9.5 -39t-19.5 -33t-35 -11t-41 22l-100 137l-100 -137q-19 -22 -39 -22t-34 11q-17 11 -20.5 33.5t9.5 38.5l120 165l-120 164q-13 16 -9.5 37.5t21 34t38 9t34.5 -20.5l100 -134l100 134
q14 17 35.5 20.5z" />
    <glyph glyph-name="y" unicode="y" horiz-adv-x="588" 
d="M416 500q22 0 38 -15.5t16 -37.5v-378q0 -100 -69.5 -169.5t-169.5 -69.5q-53 0 -103 25q-21 9 -28 29.5t2 41.5q10 18 31.5 25t45.5 -5t60 -11.5t70.5 26t46.5 64.5q-42 -24 -95 -24q-86 0 -147.5 62t-61.5 148v236q0 22 15.5 37.5t37.5 15.5t37 -15t15 -38v-236
q0 -43 30.5 -72.5t73.5 -29.5t73 29.5t30 72.5v236q0 23 15 38t37 15z" />
    <glyph glyph-name="z" unicode="z" horiz-adv-x="554" 
d="M65 34l-3 9v7q-1 1 -1 3v1l1 7v4q2 2 2 5.5t4 7.5q0 2 3 5h1l225 311h-183q-21 0 -37 15.5t-16 37.5t16 37.5t37 15.5h289l6 -1h5q3 0 4.5 -1t5.5 -2q2 -3 3 -3l7 -4q2 0 2 -2l5 -5q2 0 4.5 -4.5t4.5 -4.5q3 -9 3 -11.5t2 -4.5v-6l1 -4v-1l-1 -5q0 -7 -2 -11q0 -4 -3 -5
v-3l-5 -5v-1l-226 -310h184q21 0 37 -15.5t16 -37.5t-16 -37.5t-37 -15.5h-289q-6 0 -10 1h-3q-4 2 -6 2l-8 4q-3 3 -3 4q-4 0 -10 7.5t-6 10.5q-3 1 -3 5z" />
    <glyph glyph-name="braceleft" unicode="{" horiz-adv-x="480" 
d="M312 150l-2 -74q0 -54 21 -81t90 -48q28 -9 28 -36t-16 -39t-39 -7q-111 24 -153.5 70t-42.5 124l2 72q0 55 -22 81t-72 27q-24 1 -37.5 14.5t-13.5 33.5t13.5 33.5t37.5 14.5q51 2 72.5 27.5t21.5 81.5l-2 72q0 77 42.5 123t153.5 70q23 5 39 -7t16 -39t-28 -36
q-69 -21 -90 -48t-21 -81l2 -74q0 -56 -26 -88t-78 -49q53 -17 78.5 -49t25.5 -88z" />
    <glyph glyph-name="bar" unicode="|" horiz-adv-x="286" 
d="M121 -85v840q0 20 14 34t34 14t34.5 -14t14.5 -34v-840q0 -20 -14.5 -34t-34.5 -14t-34 14t-14 34z" />
    <glyph glyph-name="braceright" unicode="}" horiz-adv-x="480" 
d="M190 424l2 74q0 54 -20.5 81t-89.5 48q-29 9 -29 36t16 39t39 7q111 -24 153.5 -70t42.5 -123l-2 -72q0 -56 22 -81.5t73 -27.5q23 -1 36.5 -14.5t13.5 -33.5t-13.5 -33.5t-36.5 -14.5q-51 -1 -73 -27t-22 -81l2 -72q0 -78 -42.5 -124t-153.5 -70q-23 -5 -39 7t-16 39
t29 36q69 21 89.5 48t20.5 81l-2 74q0 56 26 88t78 49q-53 17 -78.5 49t-25.5 88z" />
    <glyph glyph-name="asciitilde" unicode="~" horiz-adv-x="460" 
d="M154 247q-11 -20 -29 -20t-29 10t-11 24t4 22q17 46 40 68.5t57.5 22.5t83.5 -19.5t64 -19.5q30 0 44 26t32 26t29 -10.5t11 -24t-4 -22.5q-17 -46 -40 -68.5t-57.5 -22.5t-83.5 20t-64 20q-30 0 -47 -32z" />
    <glyph glyph-name="exclamdown" unicode="&#xa1;" horiz-adv-x="252" 
d="M148 514q23 0 38.5 -16t15.5 -39v-404q0 -23 -16 -39t-38 -16t-38.5 16t-16.5 39v404q0 23 16 39t39 16zM202 645v-20q0 -23 -16 -39t-38 -16t-38.5 16t-16.5 39v20q0 23 16 39t39 16t38.5 -16t15.5 -39z" />
    <glyph glyph-name="cent" unicode="&#xa2;" horiz-adv-x="581" 
d="M418 183q17 14 39 11t36 -20.5t11 -39.5t-20 -37q-74 -54 -162 -54q-45 0 -85 14l-23 -54q-14 -33 -48 -33t-49 25t-4 51l29 69q-80 75 -80 181.5t76.5 181t183.5 75.5h4l32 76q9 21 30 29.5t42 0t29.5 -30t-0.5 -41.5l-25 -59q30 -15 48.5 -29.5t21.5 -37.5t-11 -40.5
t-35.5 -20t-34.5 7.5t-31 20l-113 -271q20 -6 43 -6q52 0 96 32zM200 384q-30 -39 -30 -81.5t19 -75.5l88 210q-47 -14 -77 -53z" />
    <glyph glyph-name="sterling" unicode="&#xa3;" horiz-adv-x="644" 
d="M489 544q-49 52 -104 52t-82.5 -34t-27.5 -91v-89h202q21 0 36.5 -15.5t15.5 -37t-15.5 -36.5t-36.5 -15h-202v-171h276q23 0 38.5 -15.5t15.5 -38t-15.5 -38t-38.5 -15.5h-438q-21 0 -34 12.5t-13 30.5q0 33 33 44l51 15v176h-32q-22 0 -37 15t-15 36.5t15 37t37 15.5
h32v92q0 110 60.5 173t174.5 63t190 -81q19 -19 19 -44t-17.5 -42.5t-44 -17.5t-43.5 19z" />
    <glyph glyph-name="yen" unicode="&#xa5;" horiz-adv-x="686" 
d="M405 264v-73h154q18 0 31 -13t13 -31.5t-13 -31.5t-31 -13h-154v-48q0 -25 -17 -42t-42 -17t-42 17t-17 42v48h-154q-18 0 -31 13t-13 31.5t13 31.5t31 13h154v73h-154q-18 0 -31 13t-13 31.5t13 31.5t31 13h119l-184 252q-15 21 -15 43.5t17.5 39.5t48 17t53.5 -34
l175 -261l177 260q23 35 52 35t46 -15.5t17 -40t-15 -44.5l-186 -252h121q18 0 31 -13t13 -31.5t-13 -31.5t-31 -13h-154z" />
    <glyph glyph-name="section" unicode="&#xa7;" horiz-adv-x="632" 
 />
    <glyph glyph-name="dieresis" unicode="&#xa8;" horiz-adv-x="500" 
d="M133 636q0 27 18.5 46t45.5 19t46 -19t19 -46t-19 -45.5t-46 -18.5t-45.5 18.5t-18.5 45.5zM333 636q0 27 18.5 46t45.5 19t46 -19t19 -46t-19 -45.5t-46 -18.5t-45.5 18.5t-18.5 45.5z" />
    <glyph glyph-name="copyright" unicode="&#xa9;" horiz-adv-x="830" 
d="M414 -12q-151 0 -256 105.5t-105 254.5v2q0 149 106 255.5t257 106.5t256 -105.5t105 -254.5v-2q0 -149 -106 -255.5t-257 -106.5zM184 118.5q93 -94.5 230.5 -94.5t231 95.5t93.5 230.5v2q0 135 -93 229.5t-230.5 94.5t-231 -95.5t-93.5 -230.5v-2q0 -135 93 -229.5z
M559 212q-61 -53 -141.5 -53t-135.5 56t-55 138v2q0 82 55 139t135.5 57t133.5 -43q16 -11 16 -28.5t-10.5 -28t-23.5 -10.5t-26 10q-41 32 -88.5 32t-81.5 -37t-34 -90v-2q0 -52 34 -89.5t84 -37.5t92 36q11 9 23.5 9t23 -10.5t10.5 -25.5t-11 -24z" />
    <glyph glyph-name="ordfeminine" unicode="&#xaa;" horiz-adv-x="390" 
d="M100 442.5q-42 44.5 -42 107t41.5 107t102.5 44.5q44 0 81 -26q5 26 31 26q14 0 23.5 -9.5t9.5 -22.5v-238q0 -14 -9.5 -23.5t-22.5 -9.5t-21.5 7.5t-10.5 19.5q-37 -27 -81 -27q-60 0 -102 44.5zM145 611q-22 -25 -22 -61.5t22 -61.5t54.5 -25t59.5 23q23 26 23 63.5
t-22.5 62t-57.5 24.5t-57 -25zM99 296q-14 0 -24 10t-10 24t10 24t24 10h218q14 0 23.5 -10t9.5 -24t-9.5 -24t-23.5 -10h-218z" />
    <glyph glyph-name="guillemotleft" unicode="&#xab;" horiz-adv-x="515" 
d="M527 56.5q-14 -14.5 -37.5 -14.5t-39.5 21l-129 166q-15 20 -15 36t15 34l126 163q17 24 41.5 24t38.5 -14.5t14 -34t-14 -35.5l-105 -137l107 -140q13 -16 12.5 -35t-14.5 -33.5zM275.5 56.5q-14.5 -14.5 -38 -14.5t-39.5 21l-129 166q-14 19 -14 36t14 34l126 163
q19 24 42.5 24t37.5 -15t14 -33.5t-13 -35.5l-106 -137l108 -140q12 -15 12 -34.5t-14.5 -34z" />
    <glyph glyph-name="registered" unicode="&#xae;" horiz-adv-x="416" 
d="M331 411.5q-51 -51.5 -123.5 -51.5t-123 51t-50.5 123v1q0 72 51 123.5t123.5 51.5t123 -51t50.5 -123v-1q0 -72 -51 -123.5zM208 379q65 0 109.5 46t44.5 110v1q0 64 -44.5 109.5t-109.5 45.5t-109.5 -46t-44.5 -110v-1q0 -64 44.5 -109.5t109.5 -45.5zM274 481l1 -18
q12 -2 12 -14q0 -13 -14 -17h-4q-27 0 -27 49q-4 20 -29 28h-34v-64q0 -7 -5 -11.5t-12 -4.5q-16 0 -16 16v173q0 16 16 16h53q26 0 44 -18.5t18 -45.5t-23 -47q20 -15 20 -42zM215 541q12 0 21 9t9 21.5t-9 21t-21 8.5h-36v-60h36z" />
    <glyph glyph-name="degree" unicode="&#xb0;" horiz-adv-x="450" 
d="M241 381q-66 0 -116.5 48.5t-50.5 113.5v2q0 65 50.5 113t116.5 48t116 -48t50 -113v-2q0 -65 -50 -113.5t-116 -48.5zM241 447q40 0 67 28.5t27 67.5v2q0 39 -27 67t-67.5 28t-67.5 -28t-27 -67v-2q0 -39 27.5 -67.5t67.5 -28.5z" />
    <glyph glyph-name="acute" unicode="&#xb4;" horiz-adv-x="500" 
d="M302 617q-29 -27 -65 -27t-36 21q0 10 8 22l57 88q18 29 45.5 29t51 -12.5t23.5 -27t-17 -29.5z" />
    <glyph glyph-name="cedilla" unicode="&#xb8;" horiz-adv-x="500" 
d="M340 10l-61 -141q-12 -29 -35.5 -29t-48.5 14.5t-25 28t8 24.5l71 103h91z" />
    <glyph glyph-name="guillemotright" unicode="&#xbb;" horiz-adv-x="515" 
d="M539 56.5q-14 -14.5 -37.5 -14.5t-39.5 21l-129 166q-15 20 -15 36t15 34l126 163q17 24 41.5 24t38.5 -14.5t14 -34t-14 -35.5l-105 -137l107 -140q13 -16 12.5 -35t-14.5 -33.5zM287.5 56.5q-14.5 -14.5 -38 -14.5t-39.5 21l-129 166q-14 19 -14 36t14 34l126 163
q19 24 42.5 24t37.5 -15t14 -33.5t-13 -35.5l-106 -137l108 -140q12 -15 12 -34.5t-14.5 -34z" />
    <glyph glyph-name="questiondown" unicode="&#xbf;" horiz-adv-x="534" 
d="M282 598.5q-14 -14.5 -34.5 -14.5t-35 14.5t-14.5 34.5v18q0 21 14.5 35t35 14t34.5 -14t14 -35v-18q0 -20 -14 -34.5zM412 340.5q46 -56.5 46 -137t-62 -142t-149 -61.5q-57 0 -105.5 28.5t-75.5 75.5q-10 18 -5 37t22 30q18 10 37.5 5t30.5 -23q32 -55 96 -55
q47 0 80.5 32.5t33.5 79t-33.5 79.5t-80.5 33q-19 0 -34 15t-15 34q0 1 0.5 2t0 1t-0.5 1v104q0 21 14.5 35t35 14t34.5 -14t14 -35v-65q70 -17 116 -73.5z" />
    <glyph glyph-name="Agrave" unicode="&#xc0;" horiz-adv-x="649" 
d="M510 35l-49 130h-243l-49 -130q-14 -35 -48.5 -35t-49.5 24.5t-6 50.5l221 589q7 16 21.5 26t31.5 9q38 2 53 -35l221 -589q9 -26 -6 -50.5t-49.5 -24.5t-47.5 35zM258 275h162l-81 215zM457 811q0 -21 -36.5 -21t-64.5 27l-68 64q-17 15 -17 29.5t23.5 27t51 12.5
t45.5 -29l57 -88q9 -14 9 -22z" />
    <glyph glyph-name="Aacute" unicode="&#xc1;" horiz-adv-x="646" 
d="M510 35l-49 130h-243l-49 -130q-14 -35 -48.5 -35t-49.5 24.5t-6 50.5l221 589q7 16 21.5 26t31.5 9q38 2 53 -35l221 -589q9 -26 -6 -50.5t-49.5 -24.5t-47.5 35zM258 275h162l-81 215zM464 817q-29 -27 -65 -27t-36 21q0 10 8 22l57 88q18 29 45.5 29t51 -12.5
t23.5 -27t-17 -29.5z" />
    <glyph glyph-name="Acircumflex" unicode="&#xc2;" horiz-adv-x="664" 
d="M511 35l-49 130h-243l-49 -130q-14 -35 -48.5 -35t-49.5 24.5t-6 50.5l221 589q7 16 21.5 26t31.5 9q38 2 53 -35l221 -589q9 -26 -6 -50.5t-49.5 -24.5t-47.5 35zM259 275h162l-81 215zM339 862l-52 -45q-32 -27 -74 -27q-27 0 -27 20q0 8 12 24l66 83q24 29 58 29h36
q35 0 58 -29l66 -83q12 -16 12 -24q0 -20 -35 -20t-68 27z" />
    <glyph glyph-name="Atilde" unicode="&#xc3;" horiz-adv-x="664" 
d="M511 35l-49 130h-243l-49 -130q-14 -35 -48.5 -35t-49.5 24.5t-6 50.5l221 589q7 16 21.5 26t31.5 9q38 2 53 -35l221 -589q9 -26 -6 -50.5t-49.5 -24.5t-47.5 35zM259 275h162l-81 215zM228 803q-13 -20 -30.5 -20t-28.5 10t-11 21t4 25q17 46 40.5 68.5t57.5 22.5
t83 -20t65 -20q29 0 46 32q13 20 30.5 20t28.5 -10t11 -21t-4 -25q-17 -46 -40.5 -68.5t-57.5 -22.5t-83 20t-65 20q-29 0 -46 -32z" />
    <glyph glyph-name="Adieresis" unicode="&#xc4;" horiz-adv-x="663" 
d="M511 35l-49 130h-243l-49 -130q-14 -35 -48.5 -35t-49.5 24.5t-6 50.5l221 589q7 16 21.5 26t31.5 9q38 2 53 -35l221 -589q9 -26 -6 -50.5t-49.5 -24.5t-47.5 35zM259 275h162l-81 215zM177 836q0 27 18.5 46t45.5 19t46 -19t19 -46t-19 -45.5t-46 -18.5t-45.5 18.5
t-18.5 45.5zM377 836q0 27 18.5 46t45.5 19t46 -19t19 -46t-19 -45.5t-46 -18.5t-45.5 18.5t-18.5 45.5z" />
    <glyph glyph-name="Aring" unicode="&#xc5;" horiz-adv-x="646" 
d="M246 275h162l-81 215zM498 35l-49 130h-243l-49 -130q-14 -35 -48.5 -35t-49.5 24.5t-6 50.5l207 553q-62 38 -62 104v2q0 50 38.5 86.5t89.5 36.5t89.5 -36.5t38.5 -86.5v-2q0 -66 -61 -103l208 -554q9 -26 -6 -50.5t-49.5 -24.5t-47.5 35zM326 685q20 0 34 13.5
t14 33.5v2q0 20 -14 33.5t-34 13.5t-34 -13.5t-14 -33.5v-2q0 -20 14 -33.5t34 -13.5z" />
    <glyph glyph-name="AE" unicode="&#xc6;" horiz-adv-x="1045" 
d="M50.5 8.5q-15.5 14.5 -15.5 35.5t10 36l337 577q24 43 72 43h481q23 0 39 -16t16 -39t-16 -39t-39 -16h-324v-182h279q23 0 39 -16.5t16 -39t-16 -38.5t-39 -16h-279v-188h329q22 0 38.5 -16t16.5 -39t-16 -39t-39 -16h-390q-26 0 -44 18t-18 44v107h-264l-81 -141
q-20 -34 -54 -34q-23 0 -38.5 14.5zM287 278h201v315h-20z" />
    <glyph glyph-name="Ccedilla" unicode="&#xc7;" horiz-adv-x="771" 
d="M260 534q-73 -75 -73 -176t74.5 -172.5t172.5 -71.5t167 55q17 13 41 10t39 -21q14 -19 11 -42.5t-21 -37.5q-100 -78 -231 -78q-150 0 -258 105.5t-109 254.5q1 148 109 253.5t258 106.5q131 0 231 -78q18 -15 21 -38t-11.5 -42t-38.5 -22t-41 11q-67 55 -165.5 55
t-175.5 -72zM470 10l-61 -141q-12 -29 -35.5 -29t-48.5 14.5t-25 28t8 24.5l71 103h91z" />
    <glyph glyph-name="Egrave" unicode="&#xc8;" horiz-adv-x="593" 
d="M159 0q-23 0 -39 16t-16 39v590q0 23 16 39t39 16h327q22 0 38.5 -16t16.5 -39t-16.5 -39.5t-38.5 -16.5h-271v-183h233q22 0 38.5 -16.5t16.5 -39t-16 -39t-39 -16.5h-233v-184h271q22 0 38.5 -16.5t16.5 -39t-16.5 -39t-38.5 -16.5h-324l-2 1zM441 811q0 -21 -36.5 -21
t-64.5 27l-68 64q-17 15 -17 29.5t23.5 27t51 12.5t45.5 -29l57 -88q9 -13 9 -22z" />
    <glyph glyph-name="Eacute" unicode="&#xc9;" horiz-adv-x="593" 
d="M159 0q-23 0 -39 16t-16 39v590q0 23 16 39t39 16h327q22 0 38.5 -16t16.5 -39t-16.5 -39.5t-38.5 -16.5h-271v-183h233q22 0 38.5 -16.5t16.5 -39t-16 -39t-39 -16.5h-233v-184h271q22 0 38.5 -16.5t16.5 -39t-16.5 -39t-38.5 -16.5h-324l-2 1zM446 817q-29 -27 -65 -27
t-36 21q0 10 8 22l57 88q18 29 45.5 29t51 -12.5t23.5 -27t-17 -29.5z" />
    <glyph glyph-name="Ecircumflex" unicode="&#xca;" horiz-adv-x="593" 
d="M159 0q-23 0 -39 16t-16 39v590q0 23 16 39t39 16h327q22 0 38.5 -16t16.5 -39t-16.5 -39.5t-38.5 -16.5h-271v-183h233q22 0 38.5 -16.5t16.5 -39t-16 -39t-39 -16.5h-233v-184h271q22 0 38.5 -16.5t16.5 -39t-16.5 -39t-38.5 -16.5h-324l-2 1zM322 862l-52 -45
q-32 -27 -74 -27q-27 0 -27 20q0 8 12 24l66 83q24 29 58 29h36q35 0 58 -29l66 -83q12 -16 12 -24q0 -20 -35 -20t-68 27z" />
    <glyph glyph-name="Edieresis" unicode="&#xcb;" horiz-adv-x="670" 
d="M159 0q-23 0 -39 16t-16 39v590q0 23 16 39t39 16h327q22 0 38.5 -16t16.5 -39t-16.5 -39.5t-38.5 -16.5h-271v-183h233q22 0 38.5 -16.5t16.5 -39t-16 -39t-39 -16.5h-233v-184h271q22 0 38.5 -16.5t16.5 -39t-16.5 -39t-38.5 -16.5h-324l-2 1zM159 836q0 27 18.5 46
t45.5 19t46 -19t19 -46t-19 -45.5t-46 -18.5t-45.5 18.5t-18.5 45.5zM359 836q0 27 18.5 46t45.5 19t46 -19t19 -46t-19 -45.5t-46 -18.5t-45.5 18.5t-18.5 45.5z" />
    <glyph glyph-name="Igrave" unicode="&#xcc;" horiz-adv-x="348" 
d="M161 55q0 -23 16 -39t39 -16t39.5 16t16.5 39v590q0 23 -16.5 39t-39.5 16t-39 -16t-16 -39v-590zM334 811q0 -21 -36.5 -21t-64.5 27l-68 64q-17 15 -17 29.5t23.5 27t51 12.5t45.5 -29l57 -88q9 -14 9 -22z" />
    <glyph glyph-name="Iacute" unicode="&#xcd;" horiz-adv-x="274" 
d="M83 55q0 -23 16 -39t39 -16t39.5 16t16.5 39v590q0 23 -16.5 39t-39.5 16t-39 -16t-16 -39v-590zM263 817q-29 -27 -65 -27t-36 21q0 10 8 22l57 88q18 29 45.5 29t51 -12.5t23.5 -27t-17 -29.5z" />
    <glyph glyph-name="Icircumflex" unicode="&#xce;" horiz-adv-x="274" 
d="M102 55q0 -23 16 -39t39 -16t39.5 16t16.5 39v590q0 23 -16.5 39t-39.5 16t-39 -16t-16 -39v-590zM154 862l-52 -45q-32 -27 -74 -27q-27 0 -27 20q0 8 12 24l66 83q24 29 58 29h36q35 0 58 -29l66 -83q12 -16 12 -24q0 -20 -35 -20t-68 27z" />
    <glyph glyph-name="Idieresis" unicode="&#xcf;" horiz-adv-x="274" 
d="M102 55q0 -23 16 -39t39 -16t39.5 16t16.5 39v590q0 23 -16.5 39t-39.5 16t-39 -16t-16 -39v-590zM-8 836q0 27 18.5 46t45.5 19t46 -19t19 -46t-19 -45.5t-46 -18.5t-45.5 18.5t-18.5 45.5zM192 836q0 27 18.5 46t45.5 19t46 -19t19 -46t-19 -45.5t-46 -18.5t-45.5 18.5
t-18.5 45.5z" />
    <glyph glyph-name="Eth" unicode="&#xd0;" horiz-adv-x="812" 
d="M114 293q-24 0 -41.5 17.5t-17.5 42t17.5 42t41.5 17.5h37v233q0 23 16 39t39 16h118q145 0 247 -102.5t102 -247.5t-102 -247.5t-247 -102.5h-118q-23 0 -39 16t-16 39v238h-37zM262 589v-177h40q24 0 41.5 -17.5t17.5 -42t-17.5 -42t-41.5 -17.5h-40v-182h62
q99 1 168.5 70.5t69.5 168.5t-69.5 169t-168.5 70h-62z" />
    <glyph glyph-name="Ntilde" unicode="&#xd1;" horiz-adv-x="790" 
d="M214 470v-415q0 -22 -16 -38.5t-38.5 -16.5t-38.5 16t-16 39v582q-2 29 19.5 44t43.5 11.5t35 -21.5l323 -447v412q0 22 16 38t38 16t38.5 -16t16.5 -38v-581q0 -23 -16.5 -39t-39.5 -16t-40 20q-4 4 -5 6zM257 803q-13 -20 -30.5 -20t-28.5 10t-11 21t4 25
q17 46 40.5 68.5t57.5 22.5t83 -20t65 -20q29 0 46 32q13 20 30.5 20t28.5 -10t11 -21t-4 -25q-17 -46 -40.5 -68.5t-57.5 -22.5t-83 20t-65 20q-29 0 -46 -32z" />
    <glyph glyph-name="Ograve" unicode="&#xd2;" horiz-adv-x="850" 
d="M73 360q0 148 99.5 254t242.5 106t242.5 -107.5t99.5 -253.5t-101 -252q-45 -50 -108 -78.5t-131 -28.5q-145 0 -244.5 106t-99.5 254zM254 186.5q67 -72.5 161.5 -72.5t161 73.5t66.5 172.5t-66 172.5t-161.5 73.5t-162 -72.5t-66.5 -173.5t67 -173.5zM534 811
q0 -21 -36.5 -21t-64.5 27l-68 64q-17 15 -17 29.5t23.5 27t51 12.5t45.5 -29l57 -88q9 -13 9 -22z" />
    <glyph glyph-name="Oacute" unicode="&#xd3;" horiz-adv-x="850" 
d="M73 360q0 148 99.5 254t242.5 106t242.5 -107.5t99.5 -253.5t-101 -252q-45 -50 -108 -78.5t-131 -28.5q-145 0 -244.5 106t-99.5 254zM254 186.5q67 -72.5 161.5 -72.5t161 73.5t66.5 172.5t-66 172.5t-161.5 73.5t-162 -72.5t-66.5 -173.5t67 -173.5zM541 817
q-29 -27 -65 -27t-36 21q0 10 8 22l57 88q18 29 45.5 29t51 -12.5t23.5 -27t-17 -29.5z" />
    <glyph glyph-name="Ocircumflex" unicode="&#xd4;" horiz-adv-x="850" 
d="M73 360q0 148 99.5 254t242.5 106t242.5 -107.5t99.5 -253.5t-101 -252q-45 -50 -108 -78.5t-131 -28.5q-145 0 -244.5 106t-99.5 254zM254 186.5q67 -72.5 161.5 -72.5t161 73.5t66.5 172.5t-66 172.5t-161.5 73.5t-162 -72.5t-66.5 -173.5t67 -173.5zM412 862l-52 -45
q-32 -27 -74 -27q-27 0 -27 20q0 8 12 24l66 83q24 29 58 29h36q35 0 58 -29l66 -83q12 -16 12 -24q0 -20 -35 -20t-68 27z" />
    <glyph glyph-name="Otilde" unicode="&#xd5;" horiz-adv-x="850" 
d="M73 360q0 148 99.5 254t242.5 106t242.5 -107.5t99.5 -253.5t-101 -252q-45 -50 -108 -78.5t-131 -28.5q-145 0 -244.5 106t-99.5 254zM254 186.5q67 -72.5 161.5 -72.5t161 73.5t66.5 172.5t-66 172.5t-161.5 73.5t-162 -72.5t-66.5 -173.5t67 -173.5zM301 803
q-13 -20 -30.5 -20t-28.5 10t-11 21t4 25q17 46 40.5 68.5t57.5 22.5t83 -20t65 -20q29 0 46 32q13 20 30.5 20t28.5 -10t11 -21t-4 -25q-17 -46 -40.5 -68.5t-57.5 -22.5t-83 20t-65 20q-29 0 -46 -32z" />
    <glyph glyph-name="Odieresis" unicode="&#xd6;" horiz-adv-x="850" 
d="M73 360q0 148 99.5 254t242.5 106t242.5 -107.5t99.5 -253.5t-101 -252q-45 -50 -108 -78.5t-131 -28.5q-145 0 -244.5 106t-99.5 254zM254 186.5q67 -72.5 161.5 -72.5t161 73.5t66.5 172.5t-66 172.5t-161.5 73.5t-162 -72.5t-66.5 -173.5t67 -173.5zM251 836
q0 27 18.5 46t45.5 19t46 -19t19 -46t-19 -45.5t-46 -18.5t-45.5 18.5t-18.5 45.5zM451 836q0 27 18.5 46t45.5 19t46 -19t19 -46t-19 -45.5t-46 -18.5t-45.5 18.5t-18.5 45.5z" />
    <glyph glyph-name="multiply" unicode="&#xd7;" horiz-adv-x="620" 
d="M524 481l-130 -128l131 -128q17 -17 17 -40t-16 -38.5t-38 -15.5t-40 16l-128 132l-129 -131q-15 -17 -38 -17t-38 15t-15 38t18 39l130 128l-132 128q-16 18 -16 40.5t16 38t38.5 15.5t39.5 -17l128 -131l129 131q15 17 38 17t38 -15.5t15 -38t-18 -38.5z" />
    <glyph glyph-name="Oslash" unicode="&#xd8;" horiz-adv-x="850" 
d="M438 -12q-124 0 -218 67l-48 -48q-15 -17 -36 -17t-33 11.5t-12 30t17 35.5l47 49q-82 99 -82 232v2q0 150 104 256t263 106q125 0 218 -68l48 49q17 17 36.5 17t32 -11.5t12.5 -30t-17 -35.5l-47 -49q82 -99 82 -232v-2q0 -150 -104 -256t-263 -106zM200 350
q0 -79 42 -143l334 349q-61 45 -138 45q-103 0 -170.5 -72.5t-67.5 -176.5v-2zM440 99q103 0 170.5 72.5t67.5 176.5v2q0 77 -42 143l-335 -350q61 -44 139 -44z" />
    <glyph glyph-name="Ugrave" unicode="&#xd9;" horiz-adv-x="760" 
d="M671 289q0 -119 -84.5 -204t-204.5 -85t-204.5 84.5t-84.5 204.5v356q0 23 16 39t39 16t39.5 -16t16.5 -39v-356q0 -73 52 -125.5t126 -52.5t126 52t52 126v356q0 23 16.5 39t39.5 16t39 -16t16 -39v-356zM501 811q0 -21 -36.5 -21t-64.5 27l-68 64q-17 15 -17 29.5
t23.5 27t51 12.5t45.5 -29l57 -88q9 -14 9 -22z" />
    <glyph glyph-name="Uacute" unicode="&#xda;" horiz-adv-x="760" 
d="M671 289q0 -119 -84.5 -204t-204.5 -85t-204.5 84.5t-84.5 204.5v356q0 23 16 39t39 16t39.5 -16t16.5 -39v-356q0 -73 52 -125.5t126 -52.5t126 52t52 126v356q0 23 16.5 39t39.5 16t39 -16t16 -39v-356zM509 817q-29 -27 -65 -27t-36 21q0 10 8 22l57 88q18 29 45.5 29
t51 -12.5t23.5 -27t-17 -29.5z" />
    <glyph glyph-name="Ucircumflex" unicode="&#xdb;" horiz-adv-x="760" 
d="M671 289q0 -119 -84.5 -204t-204.5 -85t-204.5 84.5t-84.5 204.5v356q0 23 16 39t39 16t39.5 -16t16.5 -39v-356q0 -73 52 -125.5t126 -52.5t126 52t52 126v356q0 23 16.5 39t39.5 16t39 -16t16 -39v-356zM380 862l-52 -45q-32 -27 -74 -27q-27 0 -27 20q0 8 12 24l66 83
q24 29 58 29h36q35 0 58 -29l66 -83q12 -16 12 -24q0 -20 -35 -20t-68 27z" />
    <glyph glyph-name="Udieresis" unicode="&#xdc;" horiz-adv-x="760" 
d="M671 289q0 -119 -84.5 -204t-204.5 -85t-204.5 84.5t-84.5 204.5v356q0 23 16 39t39 16t39.5 -16t16.5 -39v-356q0 -73 52 -125.5t126 -52.5t126 52t52 126v356q0 23 16.5 39t39.5 16t39 -16t16 -39v-356zM216 836q0 27 18.5 46t45.5 19t46 -19t19 -46t-19 -45.5
t-46 -18.5t-45.5 18.5t-18.5 45.5zM416 836q0 27 18.5 46t45.5 19t46 -19t19 -46t-19 -45.5t-46 -18.5t-45.5 18.5t-18.5 45.5z" />
    <glyph glyph-name="Yacute" unicode="&#xdd;" horiz-adv-x="716" 
d="M538.5 692.5q22.5 3.5 40.5 -10t21.5 -36t-9.5 -40.5l-205 -281v-270q0 -23 -16 -39t-38.5 -16t-39 16t-16.5 39v270l-203 281q-14 18 -11 40t22 36t41 10.5t35 -22.5l171 -234l171 234q14 19 36.5 22.5zM455 817q-29 -27 -65 -27t-36 21q0 10 8 22l57 88q18 29 45.5 29
t51 -12.5t23.5 -27t-17 -29.5z" />
    <glyph glyph-name="germandbls" unicode="&#xdf;" horiz-adv-x="620" 
d="M308 47q0 38 43 48q116 18 116 104v2q0 77 -115 106q-44 13 -44 49.5t26 53.5q92 51 92 126v2q0 43 -27.5 69.5t-75.5 26.5t-79 -35t-31 -93v-452q0 -25 -17.5 -42t-43 -17t-42.5 17t-17 42v448q0 109 64 172t168.5 63t163 -53.5t58.5 -134.5v-2q0 -110 -111 -171
q152 -51 152 -178v-2q0 -92 -66.5 -144.5t-158.5 -54.5q-25 0 -40 14t-15 36z" />
    <glyph glyph-name="agrave" unicode="&#xe0;" horiz-adv-x="574" 
d="M131.5 73q-68.5 73 -68.5 176.5t68.5 177t169.5 73.5q71 0 133 -44q5 19 19 31.5t34.5 12.5t36 -16t15.5 -38v-393q0 -22 -15.5 -37.5t-36 -15.5t-34.5 12t-19 31q-61 -43 -133 -43q-101 0 -169.5 73zM206.5 148q36.5 -41 94 -41t95 41t37.5 101t-38 102t-94.5 42
t-93.5 -41.5t-37 -102t36.5 -101.5zM418 591q0 -21 -36.5 -21t-64.5 27l-68 64q-17 15 -17 29.5t23.5 27t51 12.5t45.5 -29l57 -88q9 -13 9 -22z" />
    <glyph glyph-name="aacute" unicode="&#xe1;" horiz-adv-x="574" 
d="M131.5 73q-68.5 73 -68.5 176.5t68.5 177t169.5 73.5q71 0 133 -44q5 19 19 31.5t34.5 12.5t36 -16t15.5 -38v-393q0 -22 -15.5 -37.5t-36 -15.5t-34.5 12t-19 31q-61 -43 -133 -43q-101 0 -169.5 73zM206.5 148q36.5 -41 94 -41t95 41t37.5 101t-38 102t-94.5 42
t-93.5 -41.5t-37 -102t36.5 -101.5zM424 597q-29 -27 -65 -27t-36 21q0 10 8 22l57 88q18 29 45.5 29t51 -12.5t23.5 -27t-17 -29.5z" />
    <glyph glyph-name="acircumflex" unicode="&#xe2;" horiz-adv-x="574" 
d="M131.5 73q-68.5 73 -68.5 176.5t68.5 177t169.5 73.5q71 0 133 -44q5 19 19 31.5t34.5 12.5t36 -16t15.5 -38v-393q0 -22 -15.5 -37.5t-36 -15.5t-34.5 12t-19 31q-61 -43 -133 -43q-101 0 -169.5 73zM206.5 148q36.5 -41 94 -41t95 41t37.5 101t-38 102t-94.5 42
t-93.5 -41.5t-37 -102t36.5 -101.5zM300 642l-52 -45q-32 -27 -74 -27q-27 0 -27 20q0 8 12 24l66 83q24 29 58 29h36q35 0 58 -29l66 -83q12 -16 12 -24q0 -20 -35 -20t-68 27z" />
    <glyph glyph-name="atilde" unicode="&#xe3;" horiz-adv-x="574" 
d="M131.5 73q-68.5 73 -68.5 176.5t68.5 177t169.5 73.5q71 0 133 -44q5 19 19 31.5t34.5 12.5t36 -16t15.5 -38v-393q0 -22 -15.5 -37.5t-36 -15.5t-34.5 12t-19 31q-61 -43 -133 -43q-101 0 -169.5 73zM206.5 148q36.5 -41 94 -41t95 41t37.5 101t-38 102t-94.5 42
t-93.5 -41.5t-37 -102t36.5 -101.5zM188 590q-13 -20 -30.5 -20t-28.5 10t-11 21t4 25q17 46 40.5 68.5t57.5 22.5t83 -20t65 -20q29 0 46 32q13 20 30.5 20t28.5 -10t11 -21t-4 -25q-17 -46 -40.5 -68.5t-57.5 -22.5t-83 20t-65 20q-29 0 -46 -32z" />
    <glyph glyph-name="adieresis" unicode="&#xe4;" horiz-adv-x="574" 
d="M131.5 73q-68.5 73 -68.5 176.5t68.5 177t169.5 73.5q71 0 133 -44q5 19 19 31.5t34.5 12.5t36 -16t15.5 -38v-393q0 -22 -15.5 -37.5t-36 -15.5t-34.5 12t-19 31q-61 -43 -133 -43q-101 0 -169.5 73zM206.5 148q36.5 -41 94 -41t95 41t37.5 101t-38 102t-94.5 42
t-93.5 -41.5t-37 -102t36.5 -101.5zM137 634q0 27 18.5 46t45.5 19t46 -19t19 -46t-19 -45.5t-46 -18.5t-45.5 18.5t-18.5 45.5zM337 634q0 27 18.5 46t45.5 19t46 -19t19 -46t-19 -45.5t-46 -18.5t-45.5 18.5t-18.5 45.5z" />
    <glyph glyph-name="aring" unicode="&#xe5;" horiz-adv-x="574" 
d="M290 570q-51 0 -89.5 37t-38.5 86v2q0 50 38.5 86.5t89.5 36.5t89.5 -36.5t38.5 -86.5v-2q0 -49 -38.5 -86t-89.5 -37zM290 646q20 0 34 13.5t14 33.5v2q0 20 -14 33.5t-34 13.5t-34 -13.5t-14 -33.5v-2q0 -20 14 -33.5t34 -13.5zM119.5 73q-68.5 73 -68.5 176.5
t68.5 177t169.5 73.5q71 0 133 -44q5 19 19 31.5t34.5 12.5t36 -16t15.5 -38v-393q0 -22 -15.5 -37.5t-36 -15.5t-34.5 12t-19 31q-61 -43 -133 -43q-101 0 -169.5 73zM194.5 148q36.5 -41 94 -41t95 41t37.5 101t-38 102t-94.5 42t-93.5 -41.5t-37 -102t36.5 -101.5z" />
    <glyph glyph-name="ae" unicode="&#xe6;" horiz-adv-x="954" 
d="M951 268q0 -22 -15 -36t-39 -14h-325q9 -43 35 -67q16 -18 43.5 -31t54.5 -15q67 -5 106 26q16 16 41 16t36 -13q27 -32 0 -67q-73 -67 -176 -67t-175 67v-13q0 -22 -16 -38t-37 -16t-35 12.5t-19 31.5q-61 -44 -136 -44q-103 0 -173 74.5t-70 180t70 180.5t173 75
q72 0 136 -44q5 19 19 31.5t35 12.5t37 -16t16 -39v-12q72 67 170 67t168 -67t76 -169v-6zM294 109q58 0 96.5 42.5t38.5 103t-39 103.5t-96.5 43t-95.5 -42.5t-38 -104t38 -103.5t96 -42zM705 413q-59 -3 -95 -36.5t-43 -71.5h289q-9 36 -49.5 69.5t-101.5 38.5z" />
    <glyph glyph-name="ccedilla" unicode="&#xe7;" horiz-adv-x="571" 
d="M133 73.5q-75 73.5 -75 176.5t75 176t179 74q87 0 159 -55q17 -13 20 -35.5t-10.5 -39.5t-35 -20t-38.5 11q-44 32 -99.5 32t-99.5 -43t-44 -101t43.5 -100.5t99.5 -42.5t100 32q16 13 38 10t35.5 -20t10.5 -38.5t-20 -36.5q-74 -53 -159 -53q-104 0 -179 73.5zM370 10
l-61 -141q-12 -29 -35.5 -29t-48.5 14.5t-25 28t8 24.5l71 103h91z" />
    <glyph glyph-name="egrave" unicode="&#xe8;" horiz-adv-x="609" 
d="M543 263q0 -22 -14.5 -35.5t-38.5 -13.5h-318q9 -43 34 -66q32 -37 93.5 -44.5t106.5 24.5q15 16 40 16t35 -13q28 -31 0 -65q-72 -66 -176.5 -65.5t-175 73.5t-71.5 176q1 103 71.5 176.5t170.5 73.5t168.5 -65.5t74.5 -166.5v-5zM302 405q-58 -3 -93 -36t-42 -70h283
q-9 35 -48.5 68t-99.5 38zM418 591q0 -21 -36.5 -21t-64.5 27l-68 64q-17 15 -17 29.5t23.5 27t51 12.5t45.5 -29l57 -88q9 -13 9 -22z" />
    <glyph glyph-name="eacute" unicode="&#xe9;" horiz-adv-x="609" 
d="M543 263q0 -22 -14.5 -35.5t-38.5 -13.5h-318q9 -43 34 -66q32 -37 93.5 -44.5t106.5 24.5q15 16 40 16t35 -13q28 -31 0 -65q-72 -66 -176.5 -65.5t-175 73.5t-71.5 176q1 103 71.5 176.5t170.5 73.5t168.5 -65.5t74.5 -166.5v-5zM302 405q-58 -3 -93 -36t-42 -70h283
q-9 35 -48.5 68t-99.5 38zM426 597q-29 -27 -65 -27t-36 21q0 10 8 22l57 88q18 29 45.5 29t51 -12.5t23.5 -27t-17 -29.5z" />
    <glyph glyph-name="ecircumflex" unicode="&#xea;" horiz-adv-x="609" 
d="M543 263q0 -22 -14.5 -35.5t-38.5 -13.5h-318q9 -43 34 -66q32 -37 93.5 -44.5t106.5 24.5q15 16 40 16t35 -13q28 -31 0 -65q-72 -66 -176.5 -65.5t-175 73.5t-71.5 176q1 103 71.5 176.5t170.5 73.5t168.5 -65.5t74.5 -166.5v-5zM302 405q-58 -3 -93 -36t-42 -70h283
q-9 35 -48.5 68t-99.5 38zM300 642l-52 -45q-32 -27 -74 -27q-27 0 -27 20q0 8 12 24l66 83q24 29 58 29h36q35 0 58 -29l66 -83q12 -16 12 -24q0 -20 -35 -20t-68 27z" />
    <glyph glyph-name="edieresis" unicode="&#xeb;" horiz-adv-x="584" 
d="M546 263q0 -22 -14.5 -35.5t-38.5 -13.5h-318q9 -43 34 -66q32 -37 93.5 -44.5t106.5 24.5q15 16 40 16t35 -13q28 -31 0 -65q-72 -66 -176.5 -65.5t-175 73.5t-71.5 176q1 103 71.5 176.5t170.5 73.5t168.5 -65.5t74.5 -166.5v-5zM305 405q-58 -3 -93 -36t-42 -70h283
q-9 35 -48.5 68t-99.5 38zM139 634q0 27 18.5 46t45.5 19t46 -19t19 -46t-19 -45.5t-46 -18.5t-45.5 18.5t-18.5 45.5zM339 634q0 27 18.5 46t45.5 19t46 -19t19 -46t-19 -45.5t-46 -18.5t-45.5 18.5t-18.5 45.5z" />
    <glyph glyph-name="igrave" unicode="&#xec;" horiz-adv-x="281" 
d="M118 499q23 0 38.5 -15.5t15.5 -39.5v-390q0 -23 -15.5 -38.5t-38 -15.5t-38.5 16t-16 38v390q0 24 15.5 39.5t38.5 15.5zM236 591q0 -21 -36.5 -21t-64.5 27l-68 64q-17 15 -17 29.5t23.5 27t51 12.5t45.5 -29l57 -88q9 -13 9 -22z" />
    <glyph glyph-name="iacute" unicode="&#xed;" horiz-adv-x="281" 
d="M104 499q23 0 38.5 -15.5t15.5 -39.5v-390q0 -23 -15.5 -38.5t-38 -15.5t-38.5 16t-16 38v390q0 24 15.5 39.5t38.5 15.5zM229 597q-29 -27 -65 -27t-36 21q0 10 8 22l57 88q18 29 45.5 29t51 -12.5t23.5 -27t-17 -29.5z" />
    <glyph glyph-name="icircumflex" unicode="&#xee;" horiz-adv-x="281" 
d="M163 499q23 0 38.5 -15.5t15.5 -39.5v-390q0 -23 -15.5 -38.5t-38.5 -15.5t-38.5 16t-15.5 38v390q0 24 15.5 39.5t38.5 15.5zM162 642l-52 -45q-32 -27 -74 -27q-27 0 -27 20q0 8 12 24l66 83q24 29 58 29h36q35 0 58 -29l66 -83q12 -16 12 -24q0 -20 -35 -20t-68 27z
" />
    <glyph glyph-name="idieresis" unicode="&#xef;" horiz-adv-x="281" 
d="M159 499q23 0 38.5 -15.5t15.5 -39.5v-390q0 -23 -15.5 -38.5t-38.5 -15.5t-38.5 16t-15.5 38v390q0 24 15.5 39.5t38.5 15.5zM-6 634q0 27 18.5 46t45.5 19t46 -19t19 -46t-19 -45.5t-46 -18.5t-45.5 18.5t-18.5 45.5zM194 634q0 27 18.5 46t45.5 19t46 -19t19 -46
t-19 -45.5t-46 -18.5t-45.5 18.5t-18.5 45.5z" />
    <glyph glyph-name="eth" unicode="&#xf0;" horiz-adv-x="628" 
d="M429 445l-104 143l-109 -48q-8 -3 -20.5 -3t-23.5 11t-11 27q0 26 27 36l91 40q-10 14 -10 34.5t16 36.5t42 16t45 -27l11 -16l87 38q12 4 22.5 4t21.5 -11.5t11 -27.5q0 -26 -26 -36l-72 -31l90 -128q46 -67 66.5 -123t20.5 -121q0 -114 -75.5 -192.5t-196 -78.5
t-197.5 76t-77 183t66 173t166 66q71 0 139 -41zM442.5 136q42.5 45 42.5 109.5t-44 108t-112.5 43.5t-110 -42.5t-41.5 -107.5t44 -110.5t111.5 -45.5t110 45z" />
    <glyph glyph-name="ntilde" unicode="&#xf1;" 
d="M202 53q0 -22 -17 -37.5t-38.5 -15.5t-37 15.5t-15.5 37.5v394q0 22 15.5 37.5t37.5 15.5q34 0 49 -31q49 31 106 31q87 0 148 -61.5t61 -146.5v-239q0 -22 -15 -37.5t-36.5 -15.5t-37.5 15.5t-16 37.5v239q0 42 -30.5 71.5t-73 29.5t-71.5 -29.5t-29 -71.5v-239z
M189 590q-13 -20 -30.5 -20t-28.5 10t-11 21t4 25q17 46 40.5 68.5t57.5 22.5t83 -20t65 -20q29 0 46 32q13 20 30.5 20t28.5 -10t11 -21t-4 -25q-17 -46 -40.5 -68.5t-57.5 -22.5t-83 20t-65 20q-29 0 -46 -32z" />
    <glyph glyph-name="ograve" unicode="&#xf2;" horiz-adv-x="640" 
d="M299 -3q-101 0 -171 74t-70 177t70.5 177.5t169.5 74.5t168.5 -75.5t69.5 -179.5t-70 -172q-66 -76 -167 -76zM203 353q-36 -42 -36 -104t36 -106q39 -37 94 -37t94 37q39 44 39 106t-39 104q-43 38 -94 38t-94 -38zM416 591q0 -21 -36.5 -21t-64.5 27l-68 64
q-17 15 -17 29.5t23.5 27t51 12.5t45.5 -29l57 -88q9 -13 9 -22z" />
    <glyph glyph-name="oacute" unicode="&#xf3;" horiz-adv-x="640" 
d="M299 -3q-101 0 -171 74t-70 177t70.5 177.5t169.5 74.5t168.5 -75.5t69.5 -179.5t-70 -172q-66 -76 -167 -76zM203 353q-36 -42 -36 -104t36 -106q39 -37 94 -37t94 37q39 44 39 106t-39 104q-43 38 -94 38t-94 -38zM423 597q-29 -27 -65 -27t-36 21q0 10 8 22l57 88
q18 29 45.5 29t51 -12.5t23.5 -27t-17 -29.5z" />
    <glyph glyph-name="ocircumflex" unicode="&#xf4;" horiz-adv-x="640" 
d="M299 -3q-101 0 -171 74t-70 177t70.5 177.5t169.5 74.5t168.5 -75.5t69.5 -179.5t-70 -172q-66 -76 -167 -76zM203 353q-36 -42 -36 -104t36 -106q39 -37 94 -37t94 37q39 44 39 106t-39 104q-43 38 -94 38t-94 -38zM296 642l-52 -45q-32 -27 -74 -27q-27 0 -27 20
q0 8 12 24l66 83q24 29 58 29h36q35 0 58 -29l66 -83q12 -16 12 -24q0 -20 -35 -20t-68 27z" />
    <glyph glyph-name="otilde" unicode="&#xf5;" horiz-adv-x="640" 
d="M299 -3q-101 0 -171 74t-70 177t70.5 177.5t169.5 74.5t168.5 -75.5t69.5 -179.5t-70 -172q-66 -76 -167 -76zM203 353q-36 -42 -36 -104t36 -106q39 -37 94 -37t94 37q39 44 39 106t-39 104q-43 38 -94 38t-94 -38zM185 590q-13 -20 -30.5 -20t-28.5 10t-11 21t4 25
q17 46 40.5 68.5t57.5 22.5t83 -20t65 -20q29 0 46 32q13 20 30.5 20t28.5 -10t11 -21t-4 -25q-17 -46 -40.5 -68.5t-57.5 -22.5t-83 20t-65 20q-29 0 -46 -32z" />
    <glyph glyph-name="odieresis" unicode="&#xf6;" horiz-adv-x="640" 
d="M299 -3q-101 0 -171 74t-70 177t70.5 177.5t169.5 74.5t168.5 -75.5t69.5 -179.5t-70 -172q-66 -76 -167 -76zM203 353q-36 -42 -36 -104t36 -106q39 -37 94 -37t94 37q39 44 39 106t-39 104q-43 38 -94 38t-94 -38zM135 634q0 27 18.5 46t45.5 19t46 -19t19 -46
t-19 -45.5t-46 -18.5t-45.5 18.5t-18.5 45.5zM335 634q0 27 18.5 46t45.5 19t46 -19t19 -46t-19 -45.5t-46 -18.5t-45.5 18.5t-18.5 45.5z" />
    <glyph glyph-name="divide" unicode="&#xf7;" horiz-adv-x="620" 
d="M520 300h-404q-22 0 -37 15.5t-15 36.5t15 36.5t37 15.5h404q22 0 37 -15.5t15 -36.5t-15 -36.5t-37 -15.5zM318 629q28 0 48.5 -19.5t20.5 -46.5v-5q0 -28 -20 -47.5t-49 -19.5t-49 19.5t-20 47.5v5q0 27 20.5 46.5t48.5 19.5zM318 213q29 0 49 -19.5t20 -47.5v-5
q0 -28 -20 -47t-49 -19t-49 19t-20 47v5q0 28 20 47.5t49 19.5z" />
    <glyph glyph-name="oslash" unicode="&#xf8;" horiz-adv-x="640" 
d="M95 257q0 104 71.5 180t169 76t164.5 -64l34 31q17 14 37.5 18t32.5 -4.5t9.5 -24.5t-17.5 -31l-50 -45q37 -62 37 -136q0 -109 -71 -180q-67 -77 -165.5 -77t-168.5 64l-34 -30q-40 -33 -69 -14q-13 9 -10.5 25.5t18.5 32.5l49 43q-37 60 -37 136zM418 376
q-35 27 -85.5 27t-89 -42.5t-38.5 -103.5q0 -32 11 -60zM259 137q37 -27 88 -27t89.5 43.5t38.5 103.5q0 33 -12 62z" />
    <glyph glyph-name="ugrave" unicode="&#xf9;" 
d="M502 208q0 -85 -62.5 -146.5t-148 -61.5t-147 61t-61.5 147v239q0 21 15.5 37t37.5 16t37.5 -16t15.5 -37v-239q0 -43 29.5 -72.5t72.5 -29.5t73.5 29.5t31.5 72.5v239q0 21 15 37t36.5 16t38 -16t16.5 -37v-239zM409 591q0 -21 -36.5 -21t-64.5 27l-68 64
q-17 15 -17 29.5t23.5 27t51 12.5t45.5 -29l57 -88q9 -13 9 -22z" />
    <glyph glyph-name="uacute" unicode="&#xfa;" 
d="M502 208q0 -85 -62.5 -146.5t-148 -61.5t-147 61t-61.5 147v239q0 21 15.5 37t37.5 16t37.5 -16t15.5 -37v-239q0 -43 29.5 -72.5t72.5 -29.5t73.5 29.5t31.5 72.5v239q0 21 15 37t36.5 16t38 -16t16.5 -37v-239zM417 597q-29 -27 -65 -27t-36 21q0 10 8 22l57 88
q18 29 45.5 29t51 -12.5t23.5 -27t-17 -29.5z" />
    <glyph glyph-name="ucircumflex" unicode="&#xfb;" 
d="M502 208q0 -85 -62.5 -146.5t-148 -61.5t-147 61t-61.5 147v239q0 21 15.5 37t37.5 16t37.5 -16t15.5 -37v-239q0 -43 29.5 -72.5t72.5 -29.5t73.5 29.5t31.5 72.5v239q0 21 15 37t36.5 16t38 -16t16.5 -37v-239zM292 642l-52 -45q-32 -27 -74 -27q-27 0 -27 20
q0 8 12 24l66 83q24 29 58 29h36q35 0 58 -29l66 -83q12 -16 12 -24q0 -20 -35 -20t-68 27z" />
    <glyph glyph-name="udieresis" unicode="&#xfc;" 
d="M502 208q0 -85 -62.5 -146.5t-148 -61.5t-147 61t-61.5 147v239q0 21 15.5 37t37.5 16t37.5 -16t15.5 -37v-239q0 -43 29.5 -72.5t72.5 -29.5t73.5 29.5t31.5 72.5v239q0 21 15 37t36.5 16t38 -16t16.5 -37v-239zM128 633q0 27 18.5 46t45.5 19t46 -19t19 -46t-19 -45.5
t-46 -18.5t-45.5 18.5t-18.5 45.5zM328 633q0 27 18.5 46t45.5 19t46 -19t19 -46t-19 -45.5t-46 -18.5t-45.5 18.5t-18.5 45.5z" />
    <glyph glyph-name="yacute" unicode="&#xfd;" horiz-adv-x="588" 
d="M416 500q22 0 38 -15.5t16 -37.5v-378q0 -100 -69.5 -169.5t-169.5 -69.5q-53 0 -103 25q-21 9 -28 29.5t2 41.5q10 18 31.5 25t45.5 -5t60 -11.5t70.5 26t46.5 64.5q-42 -24 -95 -24q-86 0 -147.5 62t-61.5 148v236q0 22 15.5 37.5t37.5 15.5t37 -15t15 -38v-236
q0 -43 30.5 -72.5t73.5 -29.5t73 29.5t30 72.5v236q0 23 15 38t37 15zM386 597q-29 -27 -65 -27t-36 21q0 10 8 22l57 88q18 29 45.5 29t51 -12.5t23.5 -27t-17 -29.5z" />
    <glyph glyph-name="thorn" unicode="&#xfe;" horiz-adv-x="660" 
 />
    <glyph glyph-name="ydieresis" unicode="&#xff;" horiz-adv-x="588" 
d="M416 500q22 0 38 -15.5t16 -37.5v-378q0 -100 -69.5 -169.5t-169.5 -69.5q-53 0 -103 25q-21 9 -28 29.5t2 41.5q10 18 31.5 25t45.5 -5t60 -11.5t70.5 26t46.5 64.5q-42 -24 -95 -24q-86 0 -147.5 62t-61.5 148v236q0 22 15.5 37.5t37.5 15.5t37 -15t15 -38v-236
q0 -43 30.5 -72.5t73.5 -29.5t73 29.5t30 72.5v236q0 23 15 38t37 15zM96 634q0 27 18.5 46t45.5 19t46 -19t19 -46t-19 -45.5t-46 -18.5t-45.5 18.5t-18.5 45.5zM296 634q0 27 18.5 46t45.5 19t46 -19t19 -46t-19 -45.5t-46 -18.5t-45.5 18.5t-18.5 45.5z" />
    <glyph glyph-name="quoteright" unicode="&#x2019;" horiz-adv-x="230" 
d="M59 446q0 20 23 27q71 22 68 90q-24 6 -40.5 23.5t-16.5 43.5v8q0 29 19 48t50.5 19t51 -24t19.5 -64v-10q0 -97 -46 -143t-97 -46q-31 0 -31 28z" />
    <glyph glyph-name="quoteleft" unicode="&#x2018;" horiz-adv-x="230" 
d="M252 676q0 -20 -24 -27q-71 -22 -68 -89q24 -7 40.5 -25t16.5 -43v-8q0 -29 -19 -48t-50.5 -19t-51 24t-19.5 64v10q0 98 50 146q41 43 94 43q31 0 31 -28z" />
    <glyph glyph-name="quotedblright" unicode="&#x201d;" horiz-adv-x="410" 
d="M59 446q0 20 23 27q71 22 68 90q-24 6 -40.5 23.5t-16.5 43.5v8q0 29 19 48t50.5 19t51 -24t19.5 -64v-10q0 -97 -46 -143t-97 -46q-31 0 -31 28zM290 446q0 20 24 27q71 22 68 90q-24 6 -40.5 23.5t-16.5 43.5v8q0 29 19 48t50.5 19t51 -24t19.5 -64v-10q0 -98 -50 -146
q-41 -43 -94 -43q-31 0 -31 28z" />
    <glyph glyph-name="quotedblleft" unicode="&#x201c;" horiz-adv-x="410" 
d="M484 676q0 -20 -24 -27q-71 -22 -68 -89q24 -7 40.5 -25t16.5 -43v-8q0 -29 -19 -48t-50.5 -19t-51 24t-19.5 64v10q0 97 46 143t97 46q32 0 32 -28zM252 676q0 -20 -24 -27q-71 -22 -68 -89q24 -7 40.5 -25t16.5 -43v-8q0 -29 -19 -48t-50.5 -19t-51 24t-19.5 64v10
q0 98 50 146q41 43 94 43q31 0 31 -28z" />
    <glyph glyph-name="percent" unicode="%" horiz-adv-x="824" 
d="M338.5 402q-46.5 -52 -119 -52t-118.5 51.5t-46 125.5v2q0 75 46.5 127t119.5 52t118.5 -51.5t45.5 -125.5v-2q0 -75 -46.5 -127zM172.5 6.5q-11.5 11.5 -11.5 26t9 27.5l459 627q11 18 31 18t31.5 -11.5t11.5 -26t-9 -27.5l-459 -627q-12 -18 -31.5 -18t-31 11.5z
M761.5 44.5q-46.5 -52.5 -119 -52.5t-118.5 51.5t-46 125.5v2q0 75 46.5 127t119 52t118.5 -51.5t46 -125.5v-2q0 -74 -46.5 -126.5zM166 456.5q22 -29.5 55.5 -29.5t54 29t20.5 71v2q0 43 -22 72.5t-55.5 29.5t-54 -29t-20.5 -71v-2q0 -43 22 -72.5zM589 98.5
q22 -29.5 55.5 -29.5t54 29t20.5 71v2q0 43 -22 72.5t-55.5 29.5t-54 -29t-20.5 -71v-2q0 -43 22 -72.5z" />
    <glyph glyph-name="trademark" unicode="&#x2122;" horiz-adv-x="690" 
d="M251 677q0 -10 -7 -17.5t-16 -7.5h-68v-228q0 -9 -6.5 -16t-16.5 -7t-17 7t-7 16v228h-68q-10 0 -16.5 7.5t-6.5 17.5t6.5 16.5t16.5 6.5h183q9 0 16 -6.5t7 -16.5zM459 519q-8 -10 -20.5 -10t-19.5 10l-62 86v-181q0 -9 -6.5 -16t-16 -7t-16.5 7t-7 16v253q0 10 7 16.5
t16 6.5h2q11 0 19 -10l84 -118l84 118q10 10 20 10h1q24 -2 24 -23v-253q0 -9 -7 -16t-17 -7t-17 7t-7 16v181z" />
    <glyph glyph-name="ellipsis" unicode="&#x2026;" horiz-adv-x="680" 
d="M82 67q0 31 21.5 53t52.5 22t53 -22t22 -53t-22 -52.5t-53 -21.5t-52.5 21.5t-21.5 52.5zM369 67q0 31 21.5 53t52.5 22t53 -22t22 -53t-22 -52.5t-53 -21.5t-52.5 21.5t-21.5 52.5zM656 67q0 31 21.5 53t52.5 22t53 -22t22 -53t-22 -52.5t-53 -21.5t-52.5 21.5
t-21.5 52.5z" />
    <glyph glyph-name="quotedblbase" unicode="&#x201e;" horiz-adv-x="410" 
d="M54 -117q0 22 23 27q71 23 68 90q-24 7 -40.5 25t-16.5 43v8q0 29 19 48t51 19t51 -23.5t19 -64.5v-11q0 -95 -49 -146q-45 -43 -94 -43q-31 0 -31 28zM285 -117q0 22 24 27q71 23 68 90q-24 7 -40.5 25t-16.5 43v8q0 29 19 48t50.5 19t51 -24t19.5 -64v-11
q0 -96 -46.5 -142.5t-97.5 -46.5q-31 0 -31 28z" />
    <glyph glyph-name="oe" unicode="&#x153;" horiz-adv-x="1055" 
d="M962 268q0 -22 -15 -36t-39 -14h-325q9 -43 35 -67q16 -18 43.5 -31t54.5 -15q67 -5 106 26q16 16 41 16t37 -13q26 -32 -1 -67q-73 -67 -183 -67q-65 0 -119.5 31t-88.5 84q-16 -24 -33 -41q-67 -77 -171 -77t-175 75.5t-71 180.5t71.5 181t173.5 76q64 0 118 -33
t85 -85q34 54 89 86t121 32q100 0 170 -67t76 -169v-6zM399 356.5q-39 43.5 -96.5 43.5t-96 -42.5t-38.5 -104t39 -106.5q40 -40 97 -40t95.5 43.5t38.5 103t-39 103zM716 413q-59 -3 -95 -36.5t-43 -71.5h289q-9 36 -49.5 69.5t-101.5 38.5z" />
    <glyph glyph-name="bullet" unicode="&#x2022;" horiz-adv-x="470" 
d="M352.5 252q-41.5 -41 -100 -41t-100 41t-41.5 99v2q0 58 42 99.5t99.5 41.5t99.5 -41.5t42 -99.5v-2q0 -58 -41.5 -99z" />
    <glyph glyph-name="endash" unicode="&#x2013;" horiz-adv-x="528" 
d="M123 249q-23 0 -40 17t-17 40.5t17 40.5t40 17h312q23 0 40 -17t17 -40.5t-17 -40.5t-40 -17h-312z" />
    <glyph glyph-name="tilde" unicode="&#x2dc;" horiz-adv-x="500" 
d="M175 603q-13 -20 -30.5 -20t-28.5 10t-11 21t4 25q17 46 40.5 68.5t57.5 22.5t83 -20t65 -20q29 0 46 32q13 20 30.5 20t28.5 -10t11 -21t-4 -25q-17 -46 -40.5 -68.5t-57.5 -22.5t-83 20t-65 20q-29 0 -46 -32z" />
    <glyph glyph-name="scaron" unicode="&#x161;" horiz-adv-x="497" 
d="M218 719l52 -45l52 45q33 27 68 27t35 -20q0 -8 -12 -24l-66 -83q-23 -29 -58 -29h-36q-34 0 -58 29l-66 83q-12 16 -12 24q0 20 27 20q42 0 74 -27zM402 445q18 -12 22.5 -33.5t-6.5 -40.5q-12 -18 -33.5 -22.5t-40.5 8.5q-56 37 -92.5 37t-59.5 -18q-16 -11 -16 -19.5
t2.5 -12.5t10.5 -9q22 -15 73 -24l1 -1h1q53 -10 97 -30t65 -55t21 -69q0 -70 -63 -116q-58 -40 -130 -40q-93 1 -178 69q-16 13 -18.5 35.5t11.5 38.5q13 18 36 20t39 -12q54 -45 110 -44q38 0 68 19q18 15 18 25.5t-3 14.5q-2 5 -13 12q-24 17 -80 28h-1q-53 10 -92.5 29
t-63.5 55q-17 28 -17 63q0 65 59 110q54 37 123.5 37t149.5 -55z" />
    <glyph glyph-name="emdash" unicode="&#x2014;" horiz-adv-x="898" 
d="M123 249q-23 0 -40 17t-17 40.5t17 40.5t40 17h682q23 0 40 -17t17 -40.5t-17 -40.5t-40 -17h-682z" />
    <glyph glyph-name="guilsinglright" unicode="&#x203a;" horiz-adv-x="311" 
d="M82 471.5q14 14.5 37 14.5t40 -22l129 -165q15 -20 15 -35.5t-15 -35.5l-126 -162q-17 -24 -41.5 -24t-38.5 14.5t-14 34t14 35.5l105 136l-107 140q-13 16 -12.5 35.5t14.5 34z" />
    <glyph glyph-name="quotesinglbase" unicode="&#x201a;" horiz-adv-x="230" 
d="M54 -117q0 22 23 27q71 23 68 90q-24 7 -40.5 25t-16.5 43v8q0 29 19 48t51 19t51 -23.5t19 -64.5v-11q0 -95 -49 -146q-45 -43 -94 -43q-31 0 -31 28z" />
    <glyph glyph-name="florin" unicode="&#x192;" horiz-adv-x="506" 
d="M461 602l-24 2q-35 0 -54.5 -18.5t-26.5 -59.5l-12 -69h81q22 0 36.5 -15t14.5 -36t-14.5 -35.5t-36.5 -14.5h-99l-38 -213q-14 -79 -55 -114.5t-112 -35.5q-30 0 -47.5 14t-17.5 35.5t14 36t36 15.5q52 4 63 67l35 195h-34q-21 0 -36 14.5t-15 35.5t15 36t36 15h51
l18 94q15 78 55.5 116.5t119.5 38.5q26 0 48.5 -2.5t35.5 -17t13 -35t-14.5 -35t-35.5 -14.5z" />
    <glyph glyph-name="circumflex" unicode="&#x2c6;" horiz-adv-x="500" 
d="M294 662l-52 -45q-32 -27 -74 -27q-27 0 -27 20q0 8 12 24l66 83q24 29 58 29h36q35 0 58 -29l66 -83q12 -16 12 -24q0 -20 -35 -20t-68 27z" />
    <glyph glyph-name="Scaron" unicode="&#x160;" horiz-adv-x="640" 
d="M292 911l52 -45l52 45q33 27 68 27t35 -20q0 -8 -12 -24l-66 -83q-23 -29 -58 -29h-36q-34 0 -58 29l-66 83q-12 16 -12 24q0 20 27 20q42 0 74 -27zM514 213q0 76 -176 109h-2q-78 15 -135 42t-83.5 69.5t-26.5 87.5q0 87 76.5 143t176.5 56q44 0 90 -15t68.5 -28
t59.5 -37q17 -12 21.5 -33t-7 -38.5t-32.5 -22t-39 7.5q-47 32 -83.5 48t-77.5 16q-66 0 -108 -31t-42 -66q0 -17 8 -29q28 -46 151 -69h2q84 -17 138 -42q124 -61 124 -168q0 -93 -82 -152.5t-189 -59.5q-131 1 -256 100q-16 13 -18.5 35t10.5 38t35 18.5t38 -11.5
q96 -78 191 -77q75 0 121.5 34.5t46.5 74.5z" />
    <glyph glyph-name="guilsinglleft" unicode="&#x2039;" horiz-adv-x="311" 
d="M199 464q17 22 40 22t37 -14.5t14.5 -34t-12.5 -35.5l-107 -140l105 -136q14 -16 14 -35.5t-14 -34t-38.5 -14.5t-41.5 24l-126 162q-15 20 -15 35.5t15 35.5z" />
    <glyph glyph-name="Ydieresis" unicode="&#x178;" horiz-adv-x="716" 
d="M538.5 692.5q22.5 3.5 40.5 -10t21.5 -36t-9.5 -40.5l-205 -281v-270q0 -23 -16 -39t-38.5 -16t-39 16t-16.5 39v270l-203 281q-14 18 -11 40t22 36t41 10.5t35 -22.5l171 -234l171 234q14 19 36.5 22.5zM166 836q0 27 18.5 46t45.5 19t46 -19t19 -46t-19 -45.5
t-46 -18.5t-45.5 18.5t-18.5 45.5zM366 836q0 27 18.5 46t45.5 19t46 -19t19 -46t-19 -45.5t-46 -18.5t-45.5 18.5t-18.5 45.5z" />
    <glyph glyph-name="OE" unicode="&#x152;" horiz-adv-x="1443" 
d="M73 360q0 148 99.5 254t244.5 106q68 0 131 -28.5t108 -78.5q1 -2 4 -5v37q0 23 16 39t39 16h327q22 0 38.5 -16t16.5 -39t-16.5 -39.5t-38.5 -16.5h-271v-183h233q22 0 38.5 -16.5t16.5 -39t-16 -39t-39 -16.5h-233v-184h271q22 0 38.5 -16.5t16.5 -39t-16.5 -39
t-38.5 -16.5h-324l-2 1l-1 -1q-23 0 -39 16t-16 39v56l-4 -4q-45 -50 -108 -78.5t-131 -28.5q-145 0 -244.5 106t-99.5 254zM254 186.5q67 -72.5 161.5 -72.5t161 73.5t66.5 172.5t-66 172.5t-161.5 73.5t-162 -72.5t-66.5 -173.5t67 -173.5z" />
  </font>
</defs></svg>
